Glucose,BloodPressure,SkinThickness,Insulin,BMI,DiabetesPedigreeFunction,Age,label
-1.1556777365756394,-0.2618466992466303,0.1462807365054452,0.2889199655494343,0.6388373955480507,-0.007202134813845148,-0.44949737155268626,0.0
-0.18642751451798667,-3.5821708237142103,-1.291621291200964,-0.6852345235563885,0.43612343320710173,-1.0219393549657763,-0.36660655191103647,0.0
0.0324354388498704,0.36071407409104095,0.3963506543674294,1.008947196627651,0.5121411690849577,0.028930941274650956,-0.6152790108359858,0.0
0.40762907319476827,0.049433687422205344,0.1462807365054452,0.41598359456323725,0.44879305585341117,0.20658523204309012,-0.36660655191103647,1.0
1.0329517971029314,0.46447420298065284,0.7089380516949096,-0.6852345235563885,0.06870437646413217,-0.09151264568700256,0.9596465623553604,1.0
0.8453549799304824,-0.1580865703570184,0.2713156954364373,-0.6852345235563885,0.08137399911044166,-0.6545864147327329,-0.9468422894025851,0.0
-0.9055486470123743,0.5682343318702647,-1.291621291200964,-0.6852345235563885,1.3103273958024442,-0.7117971185395184,-0.36660655191103647,0.0
-0.8430163746215579,0.15319381631181722,-0.16630666082203502,-0.6852345235563885,-1.1095705296426324,0.36617298476728094,1.8714455784135082,0.0
0.563959754171809,-0.7806473436946896,-1.291621291200964,-0.6852345235563885,-0.7928299634848999,-0.2149673223226974,-0.9468422894025851,1.0
-0.46782274027666004,-0.469366957025854,0.20879821597094128,-0.6852345235563885,-0.6788033596681163,-0.5341428277710795,-0.36660655191103647,1.0
-0.3740243316904356,0.36071407409104095,1.146560407953382,0.2804490569485141,-0.5014286426197864,0.5016720200991412,-0.20082491262773686,1.0
-0.5616211488628845,2.020876136324831,1.02152544902239,-0.6852345235563885,0.9302387164131651,-0.5070430207047074,2.617462955188356,0.0
-0.6241534212537009,-0.20996663480182434,0.45886813383292546,-0.6852345235563885,-0.919526189947993,-0.7117971185395184,-0.9468422894025851,0.0
0.0324354388498704,0.46447420298065284,-1.291621291200964,-0.6852345235563885,-1.1222401522889418,-0.6606085940808156,0.5451924641471113,0.0
-0.49908887647206823,0.5682343318702647,1.5216652847463583,0.9327090192193693,0.23340947086615363,0.7154593869560762,-0.36660655191103647,1.0
0.5014274817809927,-0.054326441467406526,-0.41637657868401917,0.5684599493798008,-0.8941869446553744,-0.9948395478994044,-1.0297331090442348,0.0
1.8146052019881351,0.049433687422205344,-1.291621291200964,-0.6852345235563885,0.4107841879144837,-0.8232074364790479,0.29652000522216193,0.0
-0.3114920592996193,-0.5731270859154659,0.6464205722294136,-0.31251454511589977,-0.29871468027883735,-0.13065681144954,-0.9468422894025851,0.0
-1.030613191794007,0.2569539452014291,1.2090778874188781,-0.2278054591066978,0.43612343320710173,-0.2872334744996896,1.2083190212803097,0.0
-1.280742281357272,0.2569539452014291,-0.6039290170805073,-0.17698000750117662,-0.23536656704729086,0.16141888693247,-0.9468422894025851,0.0
0.18876611982691116,0.5682343318702647,1.02152544902239,1.0936562826368532,0.5628196596701948,0.9954907266419211,-0.8639514697609353,0.0
-1.1244116003802314,-0.1580865703570184,0.5213856132984215,-0.6852345235563885,-0.6661337370218069,-0.3685328956988058,-0.20082491262773686,0.0
0.3138306646085438,-0.1580865703570184,1.2090778874188781,-0.6852345235563885,0.3094272067440087,-0.8352517951752133,-0.9468422894025851,1.0
0.22003225602231932,0.46447420298065284,-1.291621291200964,-0.6852345235563885,-1.3629629825688183,-0.6184533386442369,1.7885547587718584,0.0
0.34509680080395194,0.5682343318702647,-1.291621291200964,-0.6852345235563885,0.3220968293903182,-0.2149673223226974,0.8767557427137106,1.0
2.1272665639422166,-0.2618466992466303,0.7714555311604057,2.067810771742676,-0.08333109529157934,0.3300399086787848,-0.36660655191103647,1.0
-1.5621375071159453,0.049433687422205344,0.3963506543674294,-0.6852345235563885,-0.48875901997347687,0.33907317770090883,-0.9468422894025851,0.0
-0.7492179660353334,0.049433687422205344,-0.35385909921852315,-0.6852345235563885,-1.7303820393117884,-0.982795189203239,-1.0297331090442348,0.0
0.40762907319476827,0.2569539452014291,0.7714555311604057,-0.17698000750117662,-0.7548210955459723,-0.040324121228299745,3.9437160694547533,0.0
-0.21769365071339483,0.9832748474287122,-1.291621291200964,-0.6852345235563885,-0.5140982652660954,-0.6816862217991051,2.700353774830006,0.0
0.7202904351488498,0.6719944607598766,0.7089380516949096,-0.6852345235563885,0.8415513578889997,0.24271830813158624,0.29652000522216193,1.0
0.9391533885167068,0.46447420298065284,0.7089380516949096,1.0936562826368532,1.3990147543266087,0.12829690051801523,0.21362918558051217,1.0
-0.6241534212537009,-0.9881676014739134,-0.35385909921852315,-0.3802818139232614,-0.9702046805332304,0.15840779725842866,-0.6152790108359858,0.0
0.12623384743609486,-0.9881676014739134,1.2090778874188781,0.7294072127972846,0.1827309802809157,1.4712428951404524,-0.44949737155268626,1.0
-0.7804841022307416,-0.054326441467406526,-0.47889405814951524,-0.2701600021112988,-1.3629629825688183,0.5227496478174307,-0.6152790108359858,0.0
-0.03009683354094591,0.5682343318702647,1.02152544902239,0.5854017665816412,1.3229970184487527,0.9382800228351356,1.2083190212803097,1.0
1.4706777038386454,0.2569539452014291,-1.291621291200964,-0.6852345235563885,0.7782032446574532,0.19152978367288342,0.04784754629721255,1.0
-0.21769365071339483,-0.1580865703570184,0.9590079695568938,1.008947196627651,0.7908728673037627,-0.5552204554893688,-1.0297331090442348,0.0
0.7202904351488498,0.6719944607598766,0.33383317490193337,1.728974427705868,0.018025885878895156,-0.06441283862063048,2.037227217696808,1.0
1.9396697467697677,-3.5821708237142103,-1.291621291200964,-0.6852345235563885,-0.4380805293882398,-0.7870743603905519,0.21362918558051217,1.0
-0.5616211488628845,-0.469366957025854,0.7714555311604057,0.9411799278202896,-0.9955439258258488,1.4832872538366177,-0.03504327334443725,0.0
-0.6241534212537009,-0.5731270859154659,0.8964904900913978,0.07714725052642933,-1.2742756240446533,-0.9587064718109084,-0.9468422894025851,0.0
-1.280742281357272,-0.1580865703570184,0.5839030927639175,-0.6852345235563885,-0.7168122276070443,-0.48295430331237665,0.6280832837887611,0.0
-0.9993470555985987,0.2569539452014291,-0.2913416197530271,0.034792707521828344,-0.18468807646205382,0.2336850391094622,0.3794108248638118,0.0
1.001685660907523,0.6719944607598766,1.3341128463498702,3.423156147889908,1.107613433461495,0.6431932347790844,-0.8639514697609353,0.0
-0.7804841022307416,-0.6768872148050777,-0.22882414028753106,-0.2701600021112988,-1.4009718505077464,-0.40165488211326045,-0.6152790108359858,0.0
0.0949677112406867,0.5682343318702647,0.7714555311604057,0.41598359456323725,0.1700613576346071,-0.5070430207047074,-0.6152790108359858,0.0
0.157499983631503,0.7757545896494884,0.5213856132984215,1.1360108256414543,-0.14667920852312585,0.1403412592141806,-0.7810606501192855,0.0
-0.03009683354094591,-3.5821708237142103,-1.291621291200964,-0.6852345235563885,-0.23536656704729086,-0.8743959609377507,0.3794108248638118,1.0
-3.7820331769899243,-0.054326441467406526,1.271595366884374,-0.6852345235563885,0.9048994711205461,0.7636368217407377,0.6280832837887611,1.0
-0.12389524212717037,-0.469366957025854,0.1462807365054452,0.21268178814115252,0.2460790935124622,-0.02225758318405169,-0.532388191194336,0.0
-0.6866856936445171,0.15319381631181722,0.5839030927639175,-0.532758168739825,0.8542209805353091,-0.18485642558228416,-1.0297331090442348,0.0
-1.1244116003802314,-0.7287672792498837,-0.04127170189104292,-0.6852345235563885,-0.9448654352406118,-1.0159171756176937,0.7109741034304109,0.0
0.7515565713442579,-3.5821708237142103,-1.291621291200964,-0.6852345235563885,1.5637198487286301,0.4715611233587279,-0.20082491262773686,1.0
0.6577581627580334,0.5682343318702647,-0.35385909921852315,-0.6852345235563885,0.06870437646413217,-0.8232074364790479,2.4516813159050566,0.0
-0.49908887647206823,1.087034976318324,-1.291621291200964,-0.6852345235563885,-0.28604505763252785,-0.832240705501172,1.04253738199701,0.0
-0.7804841022307416,-0.6768872148050777,0.8339730106259017,0.2889199655494343,-0.9068565673016838,1.4170432810077083,0.4623016445054616,0.0
0.6264920265626254,-0.5731270859154659,0.8339730106259017,0.39904177736139684,-0.8181692087775189,0.6793263108675801,-0.7810606501192855,0.0
-0.15516137832257854,0.2569539452014291,0.5213856132984215,-0.6852345235563885,0.0560347538178227,0.5618938135799681,0.13073836593886234,1.0
-0.46782274027666004,-0.2618466992466303,0.8964904900913978,0.3228035999531151,-0.17201845381574435,2.7901001723705585,0.04784754629721255,0.0
-0.03009683354094591,0.15319381631181722,0.08376325703994918,-0.2108636419048574,-1.4009718505077464,0.7817033597849857,1.2083190212803097,0.0
0.7828227075396661,0.46447420298065284,-1.291621291200964,-0.6852345235563885,0.8415513578889997,0.1403412592141806,2.7832445944716557,1.0
-1.5621375071159453,0.46447420298065284,1.8342526820738385,-0.30404363651497956,0.1700613576346071,-0.15474552884187073,-1.0297331090442348,0.0
1.158016341884564,0.7757545896494884,1.271595366884374,1.0936562826368532,0.9555779617057832,-0.2360449500409868,-0.36660655191103647,1.0
0.6890242989534416,0.2569539452014291,0.08376325703994918,-0.16850909890025642,-0.7168122276070443,-0.6545864147327329,-1.0297331090442348,0.0
-1.4683390985297209,-0.8844074725843015,-0.6664464965460034,-0.3802818139232614,-0.5140982652660954,-0.6154422489701955,-0.9468422894025851,0.0
-0.4365566040812519,-0.054326441467406526,-0.10378918135653896,-0.6852345235563885,-0.6788033596681163,-0.928595575070495,-0.7810606501192855,0.0
-0.4052904678858438,0.5682343318702647,-1.291621291200964,-0.6852345235563885,-0.6154552464365699,-0.645553145710609,1.539882299846909,1.0
-0.8430163746215579,-3.5821708237142103,-1.291621291200964,-0.6852345235563885,-4.036253360940081,-0.6545864147327329,-0.6981698304776357,0.0
1.5957422486202781,-0.054326441467406526,1.7717352026083424,4.219421556376407,1.3356666410950622,0.6883595798897042,-0.44949737155268626,1.0
-0.061362969736354064,0.8795147185391003,1.146560407953382,1.1783653686460551,1.7410945657769603,1.0075350853380864,-0.36660655191103647,1.0
0.40762907319476827,-0.5731270859154659,-0.04127170189104292,1.7797998793113894,-0.6914729823144259,-0.3655218060247645,-1.0297331090442348,0.0
-1.4996052347251292,-3.5821708237142103,-1.291621291200964,-0.6852345235563885,-1.3629629825688183,-0.39563270276517776,-0.6981698304776357,0.0
-0.061362969736354064,-3.5821708237142103,-1.291621291200964,-0.6852345235563885,-1.553007322263458,1.0798012375150783,3.197698692679905,0.0
-1.3432745537480884,0.049433687422205344,-1.291621291200964,-0.6852345235563885,0.08137399911044166,-0.6124311592961542,0.4623016445054616,0.0
-0.6866856936445171,-3.5821708237142103,-1.291621291200964,-0.6852345235563885,-0.8688476993627559,-0.663619683754857,-0.9468422894025851,0.0
-1.093145464184823,-0.054326441467406526,0.7089380516949096,-0.6852345235563885,0.4994715464386482,-0.7087860288654771,-0.6981698304776357,0.0
-0.09262910593176221,-0.2618466992466303,0.1462807365054452,0.06867634192550913,-4.036253360940081,3.7867708544782426,-1.0297331090442348,0.0
-1.1869438727710475,-0.054326441467406526,-1.291621291200964,-0.6852345235563885,-1.7303820393117884,0.45349458531447984,-0.532388191194336,0.0
-0.6866856936445171,-0.7806473436946896,-0.10378918135653896,0.04326361612274854,-0.7928299634848999,-0.9617175614849497,-0.7810606501192855,0.0
0.970419524712115,1.087034976318324,0.7714555311604057,-0.43957817412970274,-0.6407944917291883,0.775681180436903,0.7938649230720608,1.0
-0.5303550126674764,0.2569539452014291,-1.291621291200964,-0.6852345235563885,-0.3874020388030024,-0.9647286511589911,1.2083190212803097,0.0
-1.3120084175526803,0.30883400964623503,0.5839030927639175,-0.6852345235563885,0.018025885878895156,-0.23303386036694546,-0.9468422894025851,0.0
-0.15516137832257854,0.049433687422205344,0.45886813383292546,-0.6852345235563885,-0.5647767558513328,-0.8111630777828825,-1.0297331090442348,0.0
-0.4052904678858438,-1.299447988142749,-0.04127170189104292,0.41598359456323725,-0.9955439258258488,1.0225905337082928,0.13073836593886234,0.0
0.12623384743609486,0.049433687422205344,-0.16630666082203502,0.3482163257558757,-0.37473241615669334,2.019261215815976,0.9596465623553604,1.0
-0.4365566040812519,0.9832748474287122,-1.291621291200964,-0.6852345235563885,0.6261677729017412,0.7636368217407377,-0.20082491262773686,0.0
1.0329517971029314,-0.3656068281362421,0.6464205722294136,1.7205035191049478,0.1193828670493692,-0.7117971185395184,-0.8639514697609353,0.0
-0.03009683354094591,0.5682343318702647,1.7092177231428465,1.008947196627651,0.8922298484742367,2.07346082994872,0.6280832837887611,0.0
-0.6241534212537009,-0.2618466992466303,-0.22882414028753106,-0.6852345235563885,-1.375632605215128,-0.6666307734288983,-1.0297331090442348,0.0
1.6270083848156862,0.6719944607598766,1.7092177231428465,3.2537379758715037,0.8288817352426902,5.009273262139026,-0.6981698304776357,1.0
-0.4365566040812519,0.36071407409104095,-1.291621291200964,-0.6852345235563885,1.7030856978380318,0.640182145105043,-0.7810606501192855,0.0
-1.3120084175526803,0.5682343318702647,0.2713156954364373,-0.3718109053223412,-0.8181692087775189,0.3300399086787848,-0.9468422894025851,0.0
1.3143470228616048,0.15319381631181722,-1.291621291200964,-0.6852345235563885,0.9048994711205461,2.2541262103912003,-0.03504327334443725,1.0
0.22003225602231932,0.5682343318702647,-1.291621291200964,-0.6852345235563885,0.34743607468293713,-0.9918284582253631,0.9596465623553604,0.0
1.376879295252421,0.9832748474287122,-1.291621291200964,-0.6852345235563885,-0.18468807646205382,-0.5160762897268314,1.2912098409219595,1.0
0.3763629369993601,0.7757545896494884,-1.291621291200964,-0.6852345235563885,1.0569349428762582,0.6702930418454561,0.29652000522216193,0.0
-0.9680809194031905,-0.469366957025854,-1.291621291200964,-0.6852345235563885,-1.0588920390573955,-0.8503072435454201,-0.6981698304776357,0.0
0.157499983631503,-0.469366957025854,-1.291621291200964,-0.6852345235563885,-0.22269694440098137,-0.3745550750468885,1.1254282016386599,1.0
0.47016134558558453,0.7757545896494884,1.271595366884374,0.060205433324588935,0.3981145652681742,-0.5642537245114929,0.13073836593886234,1.0
0.157499983631503,-0.6768872148050777,0.5213856132984215,0.6023435837834816,-0.40007166144931183,0.986457457619797,-1.0297331090442348,0.0
1.5644761124248698,0.15319381631181722,0.7714555311604057,0.45833813756783826,0.1827309802809157,-0.8262185261530893,-0.7810606501192855,1.0
0.2512983922177275,2.1246362652144426,1.5841827642118542,0.41598359456323725,4.465063434733459,-0.46488776526812864,-0.6152790108359858,1.0
0.6890242989534416,1.294555234097548,0.7714555311604057,0.5515181321779604,0.6008285276091232,-0.6606085940808156,1.4569914802052593,1.0
0.2512983922177275,-0.2618466992466303,0.5213856132984215,0.2889199655494343,-0.6914729823144259,-0.7659967326722624,-0.44949737155268626,1.0
-0.12389524212717037,0.9832748474287122,0.20879821597094128,0.5430472235770403,0.3347664520366277,-0.21195623264865607,0.5451924641471113,1.0
0.0949677112406867,-0.054326441467406526,0.45886813383292546,1.0513017396322522,0.13205248969567868,1.209278093498856,-0.2837157322693866,1.0
0.2825645284131356,-0.469366957025854,0.1462807365054452,0.7548199386000451,-0.4127412840956209,0.6582486831492907,-1.0297331090442348,0.0
0.12623384743609486,0.049433687422205344,0.33383317490193337,0.2889199655494343,-0.09600071793788836,-0.8081519881088413,0.6280832837887611,1.0
-0.8117502384261498,0.8276346540942944,0.2713156954364373,-0.3802818139232614,0.7021855087795972,-0.6816862217991051,-0.7810606501192855,1.0
-0.5928872850582927,-1.299447988142749,-0.04127170189104292,0.11103088493011012,-0.13400958587681636,-0.22098950167078008,-0.6152790108359858,0.0
0.5952258903672172,0.2569539452014291,0.33383317490193337,0.8395290246092472,-0.9828743031795394,1.067756878818913,-0.8639514697609353,0.0
-0.9680809194031905,-0.054326441467406526,1.3341128463498702,-0.6852345235563885,0.8035424899500722,0.08915273475547779,-0.532388191194336,1.0
-0.248959786908803,-0.9881676014739134,-0.6664464965460034,0.034792707521828344,-0.29871468027883735,0.4595167646625625,-0.6981698304776357,0.0
-0.7179518298399253,0.6719944607598766,-0.35385909921852315,0.026321798920908145,-0.8435084540701374,-0.5251095587489555,-0.9468422894025851,0.0
-0.9368147832077823,0.6719944607598766,-1.291621291200964,-0.6852345235563885,0.47413230114603017,0.3420842673749502,2.8661354141133057,0.0
-3.7820331769899243,0.5682343318702647,0.7089380516949096,-0.6852345235563885,1.1582919240467322,-0.38358834406901254,0.29652000522216193,1.0
-2.4063231843919657,-0.3656068281362421,-1.291621291200964,-0.6852345235563885,-0.8688476993627559,0.3420842673749502,0.21362918558051217,0.0
-0.9993470555985987,-0.3656068281362421,-1.291621291200964,-0.6852345235563885,-1.1855882655204883,-0.9978506375734458,-0.03504327334443725,0.0
-1.1244116003802314,0.2569539452014291,0.08376325703994918,-0.6852345235563885,-0.36206279351038384,2.260148389739283,-0.11793409298608705,1.0
2.2835972449192576,0.5682343318702647,-1.291621291200964,-0.6852345235563885,-0.7294818502533534,0.2336850391094622,2.7832445944716557,0.0
-0.46782274027666004,0.15319381631181722,2.084322599935823,-0.6852345235563885,0.6008285276091232,-0.8894514093079575,0.9596465623553604,0.0
-0.8117502384261498,0.15319381631181722,-1.291621291200964,-0.6852345235563885,0.6261677729017412,0.03495312062273364,1.954336398055158,0.0
-0.2802259231042111,-0.1580865703570184,-1.291621291200964,-0.6852345235563885,0.7528639993648343,-0.6395309663625263,0.6280832837887611,1.0
-0.9368147832077823,0.049433687422205344,0.7089380516949096,0.060205433324588935,0.15739173498829764,-0.08247937666487853,-0.9468422894025851,0.0
0.0011693026544622438,0.46447420298065284,-0.22882414028753106,-0.6852345235563885,-0.6788033596681163,-0.645553145710609,2.368790496263407,0.0
-0.2802259231042111,0.8795147185391003,1.3341128463498702,0.6701108525908432,0.8288817352426902,-0.6846973114731464,-0.44949737155268626,0.0
1.4081454314478292,0.36071407409104095,-1.291621291200964,-0.6852345235563885,1.7537641884232698,-0.40165488211326045,-0.532388191194336,1.0
-0.8117502384261498,0.6719944607598766,0.2713156954364373,0.8395290246092472,0.3981145652681742,-0.7238414772356838,0.7938649230720608,1.0
-0.21769365071339483,-0.20996663480182434,-1.291621291200964,-0.6852345235563885,-1.2616060013983443,-0.12463463210145731,0.29652000522216193,0.0
-0.46782274027666004,0.049433687422205344,-1.291621291200964,-0.6852345235563885,0.29675758409770014,-0.6696418631029397,1.539882299846909,0.0
-0.21769365071339483,0.36071407409104095,-0.22882414028753106,0.2465654225448333,-1.0208831711184674,-0.02225758318405169,-0.20082491262773686,0.0
-1.1556777365756394,0.6719944607598766,0.6464205722294136,0.3736290515586363,0.8035424899500722,-0.7238414772356838,-0.8639514697609353,0.0
-0.061362969736354064,-0.2618466992466303,-0.16630666082203502,0.09408906772826973,0.3854449426218647,0.7576146423926551,-0.8639514697609353,0.0
1.4081454314478292,0.15319381631181722,-0.10378918135653896,0.7971744816046462,-0.7674907181922814,0.3420842673749502,1.4569914802052593,1.0
0.06370157504527856,0.9832748474287122,1.02152544902239,-0.6852345235563885,0.4234538105607931,-0.832240705501172,-0.36660655191103647,0.0
-0.5928872850582927,0.8795147185391003,-0.22882414028753106,0.20421087954023232,-0.32405392557145585,0.6672819521714147,-0.532388191194336,0.0
1.6582745210110943,-0.5731270859154659,0.08376325703994918,0.95812174502213,0.13205248969567868,0.36015080541919825,0.21362918558051217,1.0
-0.15516137832257854,0.15319381631181722,-0.5414115376150113,0.05173452472366874,-1.2362667561057255,-0.031290852206175716,0.29652000522216193,0.0
1.6270083848156862,0.7757545896494884,0.7714555311604057,3.3299761532797856,0.4868019237923396,-0.6485642353846504,-0.9468422894025851,1.0
2.189798836333033,-0.054326441467406526,-0.35385909921852315,0.41598359456323725,-0.12133996323050733,-0.5251095587489555,0.04784754629721255,0.0
-0.09262910593176221,0.7757545896494884,1.6467002436773504,1.2630744546552573,1.7664338110695783,0.2336850391094622,-0.20082491262773686,1.0
2.1272665639422166,2.1246362652144426,0.6464205722294136,-0.6852345235563885,-0.4254109067419304,0.6221156070607949,0.29652000522216193,0.0
-0.4052904678858438,-0.3656068281362421,-0.6664464965460034,1.6696780674994267,-0.8308388314238279,1.227344631543104,-0.9468422894025851,0.0
0.563959754171809,-0.3656068281362421,1.271595366884374,3.3808016048853067,1.1202830561078048,0.18851869399884208,-1.0297331090442348,0.0
-0.8742825108169661,-0.6768872148050777,-0.6039290170805073,-0.6852345235563885,-1.1855882655204883,-0.16980097721207743,-0.9468422894025851,0.0
-0.4365566040812519,-0.9881676014739134,-0.10378918135653896,-0.6852345235563885,-0.4507501520345489,-0.8804181402858334,-0.36660655191103647,0.0
-0.655419557449109,0.049433687422205344,0.33383317490193337,-0.2616890935103786,-0.13400958587681636,0.3721951641153636,-1.0297331090442348,0.0
0.0324354388498704,0.46447420298065284,0.6464205722294136,-0.6852345235563885,-0.5394375105587139,0.11625254182184987,0.9596465623553604,0.0
-0.2802259231042111,0.15319381631181722,0.5839030927639175,0.8056453902055664,0.3220968293903182,0.16442997660651135,-0.6981698304776357,0.0
-0.4052904678858438,-0.3656068281362421,0.20879821597094128,-0.6852345235563885,-0.7421514728996629,-0.7539523739760972,-0.6981698304776357,0.0
0.5326936179764008,0.6719944607598766,-1.291621291200964,-0.6852345235563885,1.0442653202299488,-0.7148082082135598,-0.44949737155268626,0.0
0.0324354388498704,-0.469366957025854,-0.16630666082203502,0.21268178814115252,-0.26070581233990936,0.7335259250003243,-0.9468422894025851,0.0
0.4388952093901764,1.294555234097548,1.5841827642118542,0.5430472235770403,1.107613433461495,-0.5702759038595756,-0.6152790108359858,0.0
1.8146052019881351,-0.9881676014739134,0.9590079695568938,0.661639943989923,0.7528639993648343,-0.05537956959850645,-0.9468422894025851,1.0
-0.248959786908803,-0.2618466992466303,0.8964904900913978,-0.6852345235563885,0.22073984821984413,0.20959632171713147,-1.0297331090442348,1.0
1.6270083848156862,0.2569539452014291,-1.291621291200964,-0.6852345235563885,0.6261677729017412,-1.160449479971678,0.3794108248638118,1.0
0.5952258903672172,0.8276346540942944,0.7714555311604057,-0.6852345235563885,0.7021855087795972,-0.6907194908212291,0.6280832837887611,0.0
-0.248959786908803,-1.299447988142749,-0.47889405814951524,-0.6852345235563885,-1.1982578881667978,-1.0038728169215283,-0.9468422894025851,0.0
0.8453549799304824,0.15319381631181722,0.8964904900913978,-0.6852345235563885,0.22073984821984413,0.46252785433660387,1.3741006605636092,1.0
0.7202904351488498,-0.5731270859154659,0.7714555311604057,0.45833813756783826,-0.03265260470634187,-0.15474552884187073,-0.6981698304776357,1.0
2.3148633811146655,0.049433687422205344,0.7714555311604057,0.5430472235770403,-0.8561780767164464,-0.9346177544185776,1.7885547587718584,1.0
-0.18642751451798667,1.5020754918767716,-1.291621291200964,-0.6852345235563885,2.665977018957539,-0.7961076294126759,-0.44949737155268626,1.0
-0.3740243316904356,1.190795105207936,-1.291621291200964,-0.6852345235563885,1.3736755090339907,1.1189454032776158,1.7056639391302086,0.0
-0.49908887647206823,0.30883400964623503,-1.291621291200964,-0.6852345235563885,-1.084231284350014,0.2607848461758343,1.6227731194885588,0.0
-0.7804841022307416,0.2569539452014291,-0.16630666082203502,-0.11768364729473522,0.22073984821984413,1.5766310337318996,0.7938649230720608,0.0
-0.5928872850582927,-0.8844074725843015,-1.291621291200964,-0.6852345235563885,-0.8561780767164464,-1.1905603767120914,-1.0297331090442348,0.0
0.4388952093901764,-3.5821708237142103,-1.291621291200964,-0.6852345235563885,2.5899592830796827,0.31498446030857813,0.5451924641471113,1.0
-0.9055486470123743,-0.3656068281362421,0.7089380516949096,0.3820999601595565,0.018025885878895156,-1.169482748993802,1.04253738199701,0.0
-0.9368147832077823,-0.2618466992466303,0.20879821597094128,-0.6852345235563885,-0.33672354821776534,-0.8472961538713787,-1.0297331090442348,0.0
-0.4365566040812519,-0.3656068281362421,0.5839030927639175,-0.05838728708829384,0.6008285276091232,0.853969511961978,-0.6981698304776357,1.0
-0.4052904678858438,0.9832748474287122,-0.10378918135653896,-0.6852345235563885,-0.6027856237902603,-0.22098950167078008,-0.7810606501192855,0.0
0.5326936179764008,-3.5821708237142103,-1.291621291200964,-0.6852345235563885,0.5628196596701948,1.3839212945932537,-0.6981698304776357,1.0
-0.5303550126674764,0.15319381631181722,-1.291621291200964,-0.6852345235563885,-0.08333109529157934,-0.025268672858093033,0.3794108248638118,1.0
-0.6866856936445171,0.049433687422205344,-0.2913416197530271,-0.31251454511589977,-1.451650341092984,-0.7178192978876011,-0.532388191194336,0.0
0.18876611982691116,-1.195687859253137,0.021245777574453128,2.152519857751878,0.3220968293903182,-0.8954735886560402,-0.9468422894025851,0.0
2.346129517310074,0.36071407409104095,0.5213856132984215,1.6866198847012672,0.7148551314259067,0.39628388150769434,1.954336398055158,1.0
0.5014274817809927,0.049433687422205344,1.0840429284878859,-0.6852345235563885,0.1700613576346071,-0.9135401267002883,-0.9468422894025851,0.0
1.8146052019881351,0.15319381631181722,1.3341128463498702,0.41598359456323725,0.10671324440306063,0.739548104348407,0.21362918558051217,1.0
0.7828227075396661,1.190795105207936,-1.291621291200964,-0.6852345235563885,-0.08333109529157934,0.19755196302096611,2.285899676621757,1.0
-0.03009683354094591,-0.054326441467406526,-1.291621291200964,-0.6852345235563885,-0.28604505763252785,0.7094372076079936,0.04784754629721255,0.0
1.376879295252421,0.36071407409104095,1.396630325815366,1.4748471696782621,2.032495886642074,-0.645553145710609,-0.6152790108359858,0.0
-0.18642751451798667,0.15319381631181722,-1.291621291200964,-0.6852345235563885,-0.37473241615669334,-0.2932556538477723,1.04253738199701,1.0
-0.3740243316904356,0.5682343318702647,0.6464205722294136,-0.6852345235563885,0.5121411690849577,1.9680726913572733,0.7938649230720608,1.0
1.2830808866661965,0.36071407409104095,0.9590079695568938,-0.6852345235563885,2.247879471629332,-0.3293887299362684,-0.6152790108359858,1.0
2.033468155355992,1.087034976318324,0.8964904900913978,1.2207199116506562,0.3347664520366277,-0.1517344391678294,0.29652000522216193,1.0
-1.4058068261389047,-0.3656068281362421,-1.291621291200964,-0.6852345235563885,0.27141833880508115,-0.24808930873715215,-0.6981698304776357,0.0
-1.4683390985297209,0.049433687422205344,1.2090778874188781,-0.2701600021112988,0.43612343320710173,0.6973928489118282,0.4623016445054616,0.0
-1.249476145161864,0.46447420298065284,1.2090778874188781,-0.278630910712219,1.8804604148863626,-0.6395309663625263,0.7109741034304109,0.0
0.6264920265626254,-3.5821708237142103,-1.291621291200964,-0.6852345235563885,1.3356666410950622,-0.8081519881088413,-0.36660655191103647,1.0
0.5014274817809927,-0.4174868925810481,-1.291621291200964,-0.6852345235563885,-0.9702046805332304,-0.9707508305070737,1.7885547587718584,0.0
-0.9680809194031905,-0.054326441467406526,-0.7914814554769954,-0.6852345235563885,-0.9321958125943024,2.0011946777717275,0.21362918558051217,0.0
-0.5303550126674764,0.2569539452014291,-0.16630666082203502,0.6362272181871624,-0.24803618969360033,0.748581373370531,0.6280832837887611,1.0
-0.49908887647206823,0.5682343318702647,0.45886813383292546,-0.6852345235563885,0.08137399911044166,1.21831136252098,-0.6152790108359858,0.0
0.22003225602231932,-0.2618466992466303,1.3341128463498702,-0.6852345235563885,1.0315956975836391,1.8897843598321984,-0.7810606501192855,0.0
-0.4052904678858438,-0.2618466992466303,-1.291621291200964,-0.6852345235563885,-0.13400958587681636,-0.9496732027887843,-1.0297331090442348,0.0
0.2512983922177275,0.7757545896494884,-1.291621291200964,-0.6852345235563885,-0.48875901997347687,-0.5702759038595756,-0.532388191194336,0.0
-1.5621375071159453,-1.0919277303635253,-0.16630666082203502,-0.041445469886453444,-1.451650341092984,-0.45284340657196326,-0.9468422894025851,0.0
0.0324354388498704,1.087034976318324,1.8967701615393344,1.1783653686460551,2.2605490942756417,-0.44682122722388057,-0.20082491262773686,1.0
-0.5616211488628845,-0.054326441467406526,1.2090778874188781,-0.6852345235563885,1.8171123016548163,-1.046028072358107,0.7109741034304109,0.0
-0.12389524212717037,1.087034976318324,-0.10378918135653896,-0.08380001289105443,-0.8435084540701374,-0.48295430331237665,-1.0297331090442348,0.0
0.6890242989534416,0.7757545896494884,0.1462807365054452,1.9407471427288732,1.3356666410950622,1.8145071179811652,-0.9468422894025851,0.0
0.3763629369993601,1.7095957496559953,0.45886813383292546,0.5006926805724392,0.1193828670493692,-0.7208303875616424,0.9596465623553604,1.0
2.2835972449192576,0.46447420298065284,-1.291621291200964,-0.6852345235563885,-1.0588920390573955,-1.036994803335983,2.1201180373384574,1.0
-1.093145464184823,-0.054326441467406526,0.45886813383292546,-0.08380001289105443,-0.21002732175467234,-0.3293887299362684,-0.7810606501192855,0.0
2.0647342915514004,0.049433687422205344,0.08376325703994918,1.008947196627651,0.5754892823165042,-0.1969007842784495,0.21362918558051217,1.0
0.34509680080395194,-3.5821708237142103,-1.291621291200964,-0.6852345235563885,0.13205248969567868,-0.5160762897268314,-0.8639514697609353,1.0
1.8458713381835432,0.46447420298065284,2.646979915125287,-0.5666418031435058,3.4895024909676433,5.861411639892725,-0.6981698304776357,1.0
-0.3740243316904356,-0.3656068281362421,1.271595366884374,0.40751268596231704,0.4994715464386482,0.12227472116993256,-0.6981698304776357,1.0
-1.687202051897578,0.36071407409104095,-1.291621291200964,-0.6852345235563885,1.7030856978380318,-0.841273974523296,1.04253738199701,0.0
-1.030613191794007,0.46447420298065284,0.5839030927639175,-0.6852345235563885,-0.5394375105587139,-0.6485642353846504,0.29652000522216193,0.0
-0.03009683354094591,0.36071407409104095,1.02152544902239,0.20421087954023232,0.9935868296447117,-0.7780410913684278,-0.36660655191103647,0.0
1.8146052019881351,1.3464352985423538,0.6464205722294136,-0.6852345235563885,0.29675758409770014,-0.9316066647445362,2.2030088569801074,0.0
-0.7492179660353334,0.36071407409104095,0.3963506543674294,-0.6852345235563885,0.47413230114603017,-0.2872334744996896,1.539882299846909,1.0
-0.248959786908803,0.36071407409104095,-1.291621291200964,-0.6852345235563885,0.1827309802809157,-0.5883424419038235,-0.8639514697609353,1.0
-0.6866856936445171,0.36071407409104095,-0.35385909921852315,-0.2532181849094584,-1.0969009069963234,-0.7539523739760972,-1.0297331090442348,0.0
-0.5303550126674764,0.36071407409104095,-1.291621291200964,-0.6852345235563885,-1.70504279401917,0.32702881900474345,-0.532388191194336,0.0
-1.1556777365756394,-3.5821708237142103,-1.291621291200964,-0.6852345235563885,-4.036253360940081,-0.5100541103787487,-1.0297331090442348,0.0
-0.3740243316904356,-0.6768872148050777,0.021245777574453128,0.45833813756783826,-0.8435084540701374,1.0828123271891197,-0.8639514697609353,0.0
-1.1869438727710475,-0.5731270859154659,0.6464205722294136,-0.532758168739825,0.3094272067440087,-0.41369924080942583,-0.6981698304776357,0.0
-0.655419557449109,-0.054326441467406526,0.1462807365054452,0.0009090731181475493,-0.03265260470634187,1.432098729377915,-0.44949737155268626,0.0
-0.12389524212717037,0.5682343318702647,0.6464205722294136,-0.236276367707618,1.6904160751917232,-1.1574383902976366,-0.7810606501192855,0.0
1.3143470228616048,0.049433687422205344,-0.16630666082203502,0.20421087954023232,-0.03265260470634187,-0.6184533386442369,-0.44949737155268626,1.0
-0.34275819549502745,0.36071407409104095,-1.291621291200964,-0.6852345235563885,-0.5140982652660954,-0.7117971185395184,2.037227217696808,0.0
-1.061879327989415,0.46447420298065284,0.3963506543674294,-0.4141654483269422,0.34743607468293713,-1.1213053142091405,-0.9468422894025851,0.0
-1.1556777365756394,0.15319381631181722,0.6464205722294136,-0.6852345235563885,-0.27337543498621886,-0.5311317380970382,1.04253738199701,1.0
-0.2802259231042111,0.30883400964623503,0.7089380516949096,-0.6852345235563885,0.4868019237923396,-0.9797840995291978,-1.0297331090442348,0.0
-0.46782274027666004,0.15319381631181722,-1.291621291200964,-0.6852345235563885,-0.7674907181922814,-0.8021298087607586,-0.532388191194336,0.0
1.8771374743789515,-0.2618466992466303,0.5839030927639175,0.8395290246092472,0.28408796145139065,-0.43778795820175653,0.3794108248638118,1.0
-0.21769365071339483,-0.2618466992466303,-1.291621291200964,-0.6852345235563885,-0.37473241615669334,-1.046028072358107,-0.7810606501192855,0.0
-0.8430163746215579,-0.20996663480182434,0.08376325703994918,-0.6852345235563885,-0.9068565673016838,-0.9797840995291978,-1.0297331090442348,0.0
-1.249476145161864,-0.469366957025854,0.08376325703994918,-0.6852345235563885,-0.5267678879124048,-0.5522093658153275,-0.6981698304776357,0.0
0.3763629369993601,0.15319381631181722,-1.291621291200964,-0.6852345235563885,0.13205248969567868,-0.6124311592961542,0.4623016445054616,1.0
0.12623384743609486,-0.5731270859154659,-1.291621291200964,-0.6852345235563885,-0.03265260470634187,-0.9707508305070737,-0.7810606501192855,0.0
-0.46782274027666004,-0.7806473436946896,0.021245777574453128,0.6531690353890028,-0.12133996323050733,-0.5461871864672448,-0.7810606501192855,0.0
-0.34275819549502745,1.190795105207936,-1.291621291200964,-0.6852345235563885,0.7275247540722162,-0.8503072435454201,-0.2837157322693866,0.0
0.0011693026544622438,0.46447420298065284,1.146560407953382,-0.05838728708829384,0.9048994711205461,-0.6395309663625263,-0.44949737155268626,0.0
0.563959754171809,-1.195687859253137,-0.10378918135653896,0.017850890319987947,-0.40007166144931183,0.5438272755357201,-0.9468422894025851,0.0
-0.8117502384261498,0.2569539452014291,0.021245777574453128,-0.06685819568921404,-0.7548210955459723,0.6010379793425056,0.21362918558051217,0.0
-0.9993470555985987,0.36071407409104095,0.8339730106259017,-0.3718109053223412,-0.08333109529157934,-0.8472961538713787,-0.8639514697609353,0.0
-0.5616211488628845,-2.025768890370032,1.0840429284878859,0.017850890319987947,1.4496932449118458,-0.8743959609377507,-0.03504327334443725,0.0
-1.030613191794007,-0.3656068281362421,0.20879821597094128,-0.31251454511589977,-0.24803618969360033,-0.15474552884187073,-0.8639514697609353,0.0
1.2830808866661965,0.36071407409104095,2.209357558866815,0.1618563365356313,2.7039858868964672,0.8599916913100607,-0.6981698304776357,1.0
-0.34275819549502745,0.36071407409104095,-0.04127170189104292,0.1618563365356313,-0.4380805293882398,-1.0701167897504378,-0.532388191194336,0.0
-1.061879327989415,-0.469366957025854,1.02152544902239,-0.04991637848737364,0.6768462634869792,0.10721927279972585,-0.9468422894025851,0.0
-1.061879327989415,-0.469366957025854,-0.16630666082203502,-0.6852345235563885,-1.2742756240446533,-0.08850155601296121,-1.0297331090442348,0.0
0.9391533885167068,1.087034976318324,1.5841827642118542,-0.6852345235563885,1.2976577731561347,-0.308311102217979,-1.0297331090442348,1.0
-0.8117502384261498,-0.469366957025854,0.7089380516949096,-0.6852345235563885,0.44879305585341117,-0.5702759038595756,-0.44949737155268626,0.0
0.06370157504527856,0.049433687422205344,1.4591478052808622,0.11103088493011012,0.15739173498829764,-0.299277833195855,0.5451924641471113,0.0
-0.6866856936445171,-0.3656068281362421,-0.10378918135653896,-0.05838728708829384,-1.2742756240446533,-0.5853313522297822,-0.6152790108359858,0.0
-1.1244116003802314,0.46447420298065284,-1.291621291200964,-0.6852345235563885,-0.08333109529157934,-0.27518911580352423,0.7109741034304109,0.0
-0.21769365071339483,-0.2618466992466303,-1.291621291200964,-0.6852345235563885,-0.5647767558513328,0.7786922701109444,0.04784754629721255,1.0
-1.1556777365756394,1.087034976318324,0.1462807365054452,-0.2108636419048574,0.9682475843520927,-0.946662113114743,-0.6981698304776357,0.0
-0.7492179660353334,0.049433687422205344,1.2090778874188781,-0.6852345235563885,0.7908728673037627,-0.7690078223463038,-0.2837157322693866,0.0
1.001685660907523,0.9832748474287122,1.02152544902239,0.5006926805724392,1.107613433461495,2.109593906037216,0.4623016445054616,0.0
-0.4365566040812519,0.2569539452014291,-1.291621291200964,-0.6852345235563885,-0.28604505763252785,-0.6606085940808156,-0.20082491262773686,1.0
-0.8742825108169661,-0.2618466992466303,0.7089380516949096,0.6701108525908432,0.7782032446574532,0.604049069016547,-0.8639514697609353,1.0
-0.6241534212537009,0.8795147185391003,1.02152544902239,-0.6852345235563885,1.7410945657769603,1.995172498423645,0.3794108248638118,1.0
-0.8742825108169661,1.6058356207663835,1.146560407953382,-0.07532910429013423,1.4623628675581553,1.648897185908891,0.13073836593886234,0.0
-1.4683390985297209,-3.5821708237142103,-1.291621291200964,-0.6852345235563885,-4.036253360940081,-1.1182942245350993,-0.9468422894025851,0.0
0.0949677112406867,0.049433687422205344,-0.04127170189104292,-0.6852345235563885,-0.5647767558513328,-0.6606085940808156,0.21362918558051217,1.0
-0.4052904678858438,-0.054326441467406526,-0.04127170189104292,-0.6852345235563885,-0.5774463784976419,0.9443022021832183,-0.11793409298608705,0.0
0.47016134558558453,0.2569539452014291,1.8342526820738385,1.042830831031332,0.7021855087795972,-0.22400059134482142,-0.7810606501192855,0.0
-0.5928872850582927,-0.2618466992466303,1.5841827642118542,-0.024503652684613044,1.107613433461495,0.0680751070371884,-1.0297331090442348,0.0
0.06370157504527856,0.15319381631181722,-1.291621291200964,-0.6852345235563885,0.5628196596701948,-0.6485642353846504,1.539882299846909,1.0
-0.061362969736354064,-0.1580865703570184,0.3963506543674294,-0.6852345235563885,0.8795602258279273,-0.645553145710609,-0.9468422894025851,0.0
0.0949677112406867,0.36071407409104095,0.20879821597094128,4.397310636995731,-0.40007166144931183,0.6431932347790844,1.539882299846909,1.0
-0.03009683354094591,-0.7806473436946896,-1.291621291200964,-0.6852345235563885,-0.6407944917291883,-0.05537956959850645,-0.532388191194336,0.0
-0.21769365071339483,-0.1580865703570184,-1.291621291200964,-0.6852345235563885,0.1193828670493692,-0.6485642353846504,0.7109741034304109,1.0
-0.6241534212537009,-0.5731270859154659,-0.22882414028753106,1.5595562556874643,-0.9702046805332304,0.4233836885740664,-0.8639514697609353,0.0
1.5332099762294618,0.2569539452014291,0.6464205722294136,-0.6852345235563885,1.5383806034360112,-0.21195623264865607,0.7938649230720608,1.0
-0.2802259231042111,0.15319381631181722,-1.291621291200964,-0.6852345235563885,-1.0462224164110858,1.103889954907409,2.037227217696808,0.0
-0.3114920592996193,-0.20996663480182434,-1.291621291200964,-0.6852345235563885,-0.919526189947993,0.5618938135799681,-0.20082491262773686,0.0
-0.46782274027666004,1.190795105207936,-0.16630666082203502,-0.6852345235563885,-1.16024902022787,-0.7178192978876011,1.2083190212803097,0.0
0.7828227075396661,-0.6768872148050777,-1.291621291200964,-0.6852345235563885,-0.27337543498621886,0.2728292048719993,-0.36660655191103647,0.0
-0.3740243316904356,-0.469366957025854,-0.7914814554769954,0.8564708418110876,-0.8181692087775189,1.4260765500298322,-1.0297331090442348,0.0
-0.655419557449109,0.15319381631181722,-0.5414115376150113,-0.09227092149197463,-0.8308388314238279,0.5558716342318855,-0.44949737155268626,0.0
-0.5928872850582927,0.2569539452014291,1.2090778874188781,0.20421087954023232,0.6768462634869792,-0.8111630777828825,0.9596465623553604,0.0
0.4388952093901764,-0.7806473436946896,-1.291621291200964,-0.6852345235563885,-0.6534641143754979,0.6431932347790844,2.368790496263407,0.0
0.40762907319476827,0.15319381631181722,-1.291621291200964,-0.6852345235563885,-1.0208831711184674,-0.5913535315778649,2.2030088569801074,1.0
-0.9680809194031905,0.5682343318702647,-0.41637657868401917,-0.2193345505057776,-0.9448654352406118,-0.6756640424510224,-0.7810606501192855,0.0
1.970935882965176,0.46447420298065284,1.146560407953382,1.6612071588985065,0.6515070181943602,-0.6304976973404023,-0.20082491262773686,1.0
-0.9680809194031905,0.8276346540942944,0.7089380516949096,-0.6852345235563885,0.3854449426218647,1.058723609796789,1.8714455784135082,1.0
-0.655419557449109,-0.2618466992466303,0.1462807365054452,-0.6852345235563885,-0.27337543498621886,-0.317344371240103,-1.0297331090442348,0.0
0.12623384743609486,0.8795147185391003,-1.291621291200964,-0.6852345235563885,0.7275247540722162,-0.5100541103787487,1.4569914802052593,0.0
-1.3432745537480884,0.9832748474287122,0.5213856132984215,-0.3463981795195806,0.6388373955480507,-0.11861245275337463,-1.0297331090442348,0.0
-1.3745406899434964,0.6719944607598766,1.271595366884374,-0.32945636231774017,0.4994715464386482,-0.955695382136867,0.13073836593886234,0.0
2.377395653505482,0.2569539452014291,-1.291621291200964,-0.6852345235563885,-0.7548210955459723,2.160782430495919,0.4623016445054616,1.0
2.2835972449192576,-0.054326441467406526,0.45886813383292546,-0.6852345235563885,0.5121411690849577,0.8178364358734819,0.6280832837887611,1.0
-0.9993470555985987,-0.1580865703570184,0.1462807365054452,0.11103088493011012,-0.4760893973271674,-0.9225733957224123,-1.0297331090442348,0.0
1.8771374743789515,0.7757545896494884,0.021245777574453128,0.9411799278202896,0.5121411690849577,0.33907317770090883,1.4569914802052593,1.0
-0.46782274027666004,-0.8844074725843015,-1.291621291200964,-0.6852345235563885,-0.08333109529157934,-0.2812112951516069,0.7109741034304109,0.0
-1.1869438727710475,0.8795147185391003,-0.10378918135653896,-0.6852345235563885,-0.32405392557145585,-0.4709099446162113,0.04784754629721255,0.0
1.3456131590570128,0.46447420298065284,-1.291621291200964,-0.6852345235563885,0.1193828670493692,-0.9797840995291978,0.9596465623553604,1.0
0.0949677112406867,0.049433687422205344,0.7714555311604057,2.7200707340135315,0.44879305585341117,-0.5762980832076583,0.04784754629721255,0.0
-0.46782274027666004,0.049433687422205344,0.45886813383292546,0.45833813756783826,0.29675758409770014,-0.9978506375734458,-0.9468422894025851,0.0
-0.6866856936445171,-0.469366957025854,-0.10378918135653896,-0.2278054591066978,-0.6281248690828793,0.07108619671122975,-0.11793409298608705,0.0
-0.49908887647206823,-0.5731270859154659,1.2090778874188781,0.11103088493011012,0.3854449426218647,-0.7479301946280145,-0.6981698304776357,0.0
-0.5928872850582927,0.30883400964623503,0.1462807365054452,-0.6852345235563885,-4.036253360940081,0.29691792226433006,-1.0297331090442348,0.0
-0.3114920592996193,1.087034976318324,-0.5414115376150113,-0.024503652684613044,-0.4380805293882398,0.06506401736314706,-0.36660655191103647,0.0
-1.1556777365756394,-0.9881676014739134,0.1462807365054452,-0.041445469886453444,-0.18468807646205382,1.4893094331847005,-1.0297331090442348,0.0
-0.3740243316904356,-0.5731270859154659,-0.16630666082203502,0.2973908741503545,-0.4254109067419304,-0.7659967326722624,-0.9468422894025851,0.0
0.157499983631503,0.2569539452014291,1.0840429284878859,-0.04991637848737364,-0.7548210955459723,-0.9376288440926189,0.4623016445054616,0.0
-0.061362969736354064,-3.5821708237142103,-1.291621291200964,-0.6852345235563885,-0.8435084540701374,-0.7961076294126759,0.29652000522216193,0.0
0.3763629369993601,-0.054326441467406526,-1.291621291200964,-0.6852345235563885,-0.6154552464365699,-0.6877084011471878,0.21362918558051217,0.0
0.2512983922177275,0.36071407409104095,0.45886813383292546,0.3482163257558757,0.5121411690849577,-0.5823202625557408,0.4623016445054616,0.0
1.158016341884564,-0.2618466992466303,-0.47889405814951524,2.5930071049997285,-0.08333109529157934,-0.5371539174451209,-0.7810606501192855,0.0
0.3138306646085438,-0.054326441467406526,0.021245777574453128,0.7209363041963645,0.15739173498829764,-0.9436510234407016,-0.44949737155268626,0.0
-0.5928872850582927,0.46447420298065284,1.2090778874188781,0.07714725052642933,0.3347664520366277,-0.7087860288654771,-0.7810606501192855,0.0
-1.4683390985297209,-0.054326441467406526,0.45886813383292546,-0.30404363651497956,-0.27337543498621886,-0.5431760967932036,-0.8639514697609353,0.0
-0.6241534212537009,-0.3656068281362421,-1.291621291200964,-0.6852345235563885,-1.2616060013983443,-0.41369924080942583,-0.6981698304776357,0.0
1.7520729295973188,-0.469366957025854,0.5213856132984215,3.363859787683466,0.34743607468293713,1.8024627592849998,-1.0297331090442348,1.0
0.47016134558558453,0.7757545896494884,0.8964904900913978,0.41598359456323725,-0.4507501520345489,-0.6425420560365677,0.7109741034304109,1.0
1.0329517971029314,0.46447420298065284,1.271595366884374,0.5006926805724392,1.8044426790085066,0.2939068325902887,-0.532388191194336,0.0
0.7828227075396661,0.049433687422205344,1.0840429284878859,2.364292572774883,-0.48875901997347687,-0.4106881511353845,-0.36660655191103647,1.0
0.06370157504527856,-0.3656068281362421,-1.291621291200964,-0.6852345235563885,0.018025885878895156,-0.7449191049539732,0.13073836593886234,1.0
0.563959754171809,0.5682343318702647,-1.291621291200964,-0.6852345235563885,-0.6027856237902603,2.913554849006254,1.954336398055158,0.0
-0.49908887647206823,-0.2618466992466303,1.271595366884374,0.5176344977742796,1.2216400372782787,-0.9045068576781642,-0.9468422894025851,0.0
0.8140888437350743,0.36071407409104095,-1.291621291200964,-0.6852345235563885,0.9555779617057832,-0.6515753250586916,0.7938649230720608,1.0
0.563959754171809,0.30883400964623503,-1.291621291200964,-0.6852345235563885,-0.7928299634848999,-0.9225733957224123,-0.36660655191103647,0.0
-1.9998634138516596,-0.469366957025854,-1.291621291200964,-0.6852345235563885,-1.286945246690963,0.7877255391330684,2.7832445944716557,0.0
-0.2802259231042111,0.5682343318702647,1.5216652847463583,0.43292541176507765,0.3727753199755552,-0.7720189120203451,-0.7810606501192855,0.0
0.18876611982691116,-0.5731270859154659,0.20879821597094128,1.6442653416966662,-0.5267678879124048,3.392318107178827,-0.6981698304776357,0.0
0.0324354388498704,-0.054326441467406526,-1.291621291200964,-0.6852345235563885,-0.08333109529157934,-0.6485642353846504,0.6280832837887611,0.0
-0.655419557449109,0.2569539452014291,-0.5414115376150113,-0.29557272791405936,-1.5656769449097674,-0.9767730098551564,-0.44949737155268626,0.0
0.12623384743609486,0.049433687422205344,0.20879821597094128,0.2465654225448333,-0.9575350578869208,-0.7599745533241797,-0.6981698304776357,0.0
-0.09262910593176221,-0.5731270859154659,0.9590079695568938,0.11103088493011012,0.1827309802809157,-0.6395309663625263,-0.8639514697609353,0.0
-0.5616211488628845,0.5682343318702647,-0.6039290170805073,0.009379981719067747,-1.5783465675560768,0.05301965866698169,-0.9468422894025851,0.0
-1.030613191794007,-0.5731270859154659,-0.6039290170805073,-0.2278054591066978,-0.8941869446553744,-0.6214644283182782,-0.9468422894025851,0.0
-0.5303550126674764,-0.2618466992466303,1.02152544902239,-0.14309637309749582,0.22073984821984413,0.11023036247376719,-0.9468422894025851,1.0
1.8146052019881351,1.087034976318324,0.3963506543674294,-0.6852345235563885,1.5510502260823207,0.640182145105043,-0.8639514697609353,1.0
1.4706777038386454,0.9832748474287122,1.3341128463498702,2.033927137338995,0.8035424899500722,0.9443022021832183,0.5451924641471113,1.0
1.970935882965176,0.8276346540942944,-0.35385909921852315,-0.6852345235563885,-0.23536656704729086,2.2270264033248286,1.2912098409219595,1.0
1.9084036105743596,0.2569539452014291,-1.291621291200964,-0.6852345235563885,-0.17201845381574435,-0.3865994337430539,-0.36660655191103647,1.0
1.2518147504707884,-0.054326441467406526,0.1462807365054452,0.43292541176507765,-0.8054995861312094,-0.4438101375498392,1.1254282016386599,1.0
-1.2182100089664558,-0.2618466992466303,-0.47889405814951524,0.11950179353103033,-1.3502933599225093,-0.17582315656016012,-0.8639514697609353,0.0
-3.7820331769899243,-0.054326441467406526,0.8964904900913978,-0.6852345235563885,0.018025885878895156,-0.25411148808523487,-0.9468422894025851,0.0
-0.9055486470123743,-0.3656068281362421,-0.8539989349424916,1.5002598954810227,-0.5394375105587139,1.3628436668749644,0.8767557427137106,1.0
1.5019438400340537,0.2569539452014291,-0.10378918135653896,0.3736290515586363,-0.24803618969360033,-0.6184533386442369,-0.20082491262773686,1.0
-0.8117502384261498,-0.7806473436946896,-0.41637657868401917,0.060205433324588935,-0.7294818502533534,0.8268697048956059,-0.9468422894025851,0.0
-0.9993470555985987,1.087034976318324,0.5839030927639175,-0.6852345235563885,0.20807022557353466,-0.5461871864672448,0.7109741034304109,0.0
0.9078872523212987,0.36071407409104095,-1.291621291200964,-0.6852345235563885,-1.375632605215128,-0.8021298087607586,0.29652000522216193,0.0
1.376879295252421,1.087034976318324,0.7714555311604057,5.074983325069346,2.5899592830796827,-0.13969008047166404,-0.8639514697609353,0.0
1.0642179332983395,0.7757545896494884,1.4591478052808622,3.93141066394512,0.8668906031816187,0.4384391369442731,0.04784754629721255,0.0
-0.5928872850582927,0.8795147185391003,0.9590079695568938,0.3312745085540353,1.7284249431306506,-1.0430169826840658,-0.8639514697609353,1.0
-0.21769365071339483,0.2569539452014291,-1.291621291200964,-0.6852345235563885,-0.8815173220090654,0.8148253461994405,1.954336398055158,0.0
-0.9368147832077823,-0.054326441467406526,-1.291621291200964,-0.6852345235563885,-0.9702046805332304,-0.8232074364790479,2.037227217696808,0.0
-0.2802259231042111,0.6719944607598766,0.7089380516949096,0.7971744816046462,0.29675758409770014,-0.6425420560365677,0.21362918558051217,1.0
-0.061362969736354064,-3.5821708237142103,-1.291621291200964,-0.6852345235563885,0.06870437646413217,-1.0008617272474871,-0.7810606501192855,1.0
0.6890242989534416,0.8795147185391003,0.5839030927639175,2.110165314747277,-0.22269694440098137,1.2604666179575588,-0.8639514697609353,0.0
0.06370157504527856,0.15319381631181722,1.5216652847463583,1.2630744546552573,0.22073984821984413,0.7817033597849857,0.04784754629721255,0.0
0.970419524712115,0.6719944607598766,1.146560407953382,1.6188526158939056,1.2216400372782787,-0.6124311592961542,-0.532388191194336,0.0
0.2512983922177275,-0.3656068281362421,0.9590079695568938,-0.6852345235563885,1.183631169339351,-0.09753482503508523,0.3794108248638118,1.0
-0.655419557449109,-0.1580865703570184,-0.04127170189104292,0.07714725052642933,0.13205248969567868,1.1851893761065253,-0.44949737155268626,1.0
-0.655419557449109,-0.7806473436946896,0.45886813383292546,0.20421087954023232,0.7528639993648343,0.07409728638527108,-0.7810606501192855,0.0
-0.46782274027666004,0.36071407409104095,-1.291621291200964,-0.6852345235563885,0.7148551314259067,-0.832240705501172,-0.6152790108359858,0.0
0.47016134558558453,1.087034976318324,-1.291621291200964,-0.6852345235563885,-0.24803618969360033,-0.7930965397386346,1.3741006605636092,0.0
-0.655419557449109,-0.054326441467406526,0.2713156954364373,-0.08380001289105443,0.8415513578889997,-0.4498323168979219,-0.6152790108359858,0.0
0.22003225602231932,0.049433687422205344,-1.291621291200964,-0.6852345235563885,0.3094272067440087,-0.5130652000527901,-0.7810606501192855,0.0
-0.34275819549502745,-0.1580865703570184,-1.291621291200964,-0.6852345235563885,0.0053562632325856755,-0.007202134813845148,-0.36660655191103647,0.0
-1.6559359157021698,0.049433687422205344,0.7089380516949096,-0.1261545558956554,-0.8688476993627559,-0.8623516022415855,-0.6981698304776357,0.0
-0.4052904678858438,0.15319381631181722,1.396630325815366,-0.04991637848737364,0.5374804143775767,-0.6335087870144436,-0.03504327334443725,0.0
-0.655419557449109,0.7757545896494884,0.7714555311604057,0.20421087954023232,-0.23536656704729086,0.04398638964485766,1.04253738199701,0.0
-0.15516137832257854,-3.5821708237142103,-1.291621291200964,-0.6852345235563885,-1.0588920390573955,-0.8623516022415855,-0.8639514697609353,0.0
0.7828227075396661,0.36071407409104095,0.8964904900913978,0.95812174502213,0.8035424899500722,-0.4347768685277152,-0.36660655191103647,0.0
-0.7804841022307416,2.747197038552114,-1.291621291200964,-0.6852345235563885,-1.1982578881667978,-0.8021298087607586,-0.532388191194336,0.0
0.9391533885167068,1.087034976318324,1.0840429284878859,-0.6852345235563885,-0.27337543498621886,-0.5401650071191622,0.21362918558051217,0.0
0.34509680080395194,0.5682343318702647,-1.291621291200964,-0.6852345235563885,-0.6407944917291883,-0.8653626919156268,2.9490262337549558,0.0
0.5326936179764008,0.2569539452014291,0.33383317490193337,0.53457631497612,0.5374804143775767,0.25175157715371027,1.3741006605636092,1.0
0.3138306646085438,-0.2618466992466303,-0.41637657868401917,2.830192545825494,-1.0335527937647768,-0.25411148808523487,-1.0297331090442348,0.0
0.18876611982691116,0.9832748474287122,-0.6039290170805073,0.6277563095862422,0.3347664520366277,0.3752062537894049,-0.44949737155268626,0.0
2.40866178970089,-0.1580865703570184,0.7089380516949096,1.635794433095746,1.1963007919856596,0.08614164508143646,-0.44949737155268626,1.0
0.157499983631503,0.9832748474287122,0.9590079695568938,0.2296236053429929,0.8415513578889997,-0.3745550750468885,1.2912098409219595,0.0
-0.9680809194031905,0.049433687422205344,-0.22882414028753106,-0.6852345235563885,-0.5774463784976419,-1.169482748993802,-0.9468422894025851,0.0
-1.6559359157021698,-0.3656068281362421,-0.47889405814951524,-0.5581708945425855,-1.4896592090319114,-0.6515753250586916,-0.8639514697609353,0.0
-0.49908887647206823,-3.5821708237142103,-1.291621291200964,-0.6852345235563885,-4.036253360940081,-0.5070430207047074,-0.7810606501192855,0.0
-0.7804841022307416,-3.5821708237142103,-1.291621291200964,-0.6852345235563885,-1.0335527937647768,-0.8533183332194614,-0.44949737155268626,0.0
1.6582745210110943,0.9832748474287122,1.02152544902239,0.3312745085540353,1.6017287166675578,0.5197385581433893,-0.7810606501192855,1.0
1.8458713381835432,-3.5821708237142103,-1.291621291200964,-0.6852345235563885,1.4496932449118458,-0.5762980832076583,0.6280832837887611,1.0
0.3138306646085438,-3.5821708237142103,-1.291621291200964,-0.6852345235563885,1.4370236222655373,-0.6124311592961542,-0.6152790108359858,1.0
1.0642179332983395,-0.3656068281362421,0.33383317490193337,3.5078652338991096,0.27141833880508115,0.20959632171713147,1.04253738199701,1.0
-0.655419557449109,0.049433687422205344,1.9592876410048305,-0.2023927333039372,1.0949438108151857,0.613082338038671,-0.6981698304776357,0.0
0.5952258903672172,1.294555234097548,-1.291621291200964,-0.6852345235563885,0.10671324440306063,0.7847144494590271,0.9596465623553604,1.0
2.0647342915514004,-0.054326441467406526,1.146560407953382,1.8899216911233518,0.7401943767185256,-0.6606085940808156,0.6280832837887611,1.0
1.4081454314478292,0.2569539452014291,-1.291621291200964,-0.6852345235563885,-0.6661337370218069,-0.5100541103787487,2.700353774830006,0.0
1.8771374743789515,-0.054326441467406526,0.9590079695568938,3.5078652338991096,-0.22269694440098137,0.42639477824810773,2.2030088569801074,1.0
0.970419524712115,0.46447420298065284,0.8339730106259017,0.7632908472009654,0.29675758409770014,1.2634777076316002,-0.03504327334443725,1.0
-0.2802259231042111,0.2569539452014291,0.5839030927639175,-0.6852345235563885,-0.03265260470634187,-0.832240705501172,-0.6981698304776357,1.0
1.8771374743789515,0.46447420298065284,1.3341128463498702,1.7967416965132297,1.0315956975836391,2.362525438656689,-0.9468422894025851,1.0
-0.12389524212717037,1.3983153629871596,-1.291621291200964,-0.6852345235563885,-0.40007166144931183,-0.9526842924628257,-0.2837157322693866,0.0
0.7202904351488498,-0.5731270859154659,0.45886813383292546,0.5006926805724392,-0.29871468027883735,-0.5612426348374515,0.29652000522216193,0.0
0.0011693026544622438,-0.1580865703570184,0.5839030927639175,0.7124653955954442,0.3094272067440087,-0.814174167456924,-0.03504327334443725,1.0
-0.9680809194031905,0.9832748474287122,1.6467002436773504,-0.2278054591066978,0.7401943767185256,-0.3354109092843511,-0.36660655191103647,0.0
-0.3114920592996193,0.15319381631181722,0.45886813383292546,-0.6852345235563885,-1.0082135484721584,-0.19991187395249085,-0.532388191194336,0.0
1.2518147504707884,0.8795147185391003,-1.291621291200964,-0.6852345235563885,-0.18468807646205382,-0.928595575070495,1.1254282016386599,1.0
0.40762907319476827,0.5682343318702647,1.02152544902239,2.449001658784085,1.8171123016548163,-0.7087860288654771,1.04253738199701,1.0
2.0647342915514004,0.36071407409104095,0.3963506543674294,1.0682435568340924,1.4877021128507741,1.6880413516714288,1.6227731194885588,1.0
0.18876611982691116,1.9171160074352191,-1.291621291200964,-0.6852345235563885,0.9048994711205461,-0.8533183332194614,1.4569914802052593,0.0
-0.46782274027666004,0.049433687422205344,1.02152544902239,0.5684599493798008,0.9555779617057832,0.39628388150769434,-0.9468422894025851,0.0
-1.1556777365756394,-0.054326441467406526,0.5839030927639175,0.21268178814115252,0.0053562632325856755,0.35412862607111556,-0.6981698304776357,0.0
0.22003225602231932,-1.0919277303635253,1.5216652847463583,0.95812174502213,1.0949438108151857,0.4203725989000251,-0.7810606501192855,1.0
0.9078872523212987,-0.1580865703570184,1.3341128463498702,2.2118162179583196,0.36010569732924663,0.7365370146743656,0.7109741034304109,0.0
0.22003225602231932,1.5020754918767716,1.271595366884374,-0.193921824703017,0.018025885878895156,2.5522240881212928,-0.03504327334443725,1.0
0.7515565713442579,0.5682343318702647,1.5841827642118542,0.41598359456323725,0.7655336220111437,0.49263875107701727,0.5451924641471113,1.0
-0.8117502384261498,-0.2618466992466303,-1.291621291200964,-0.6852345235563885,0.018025885878895156,-0.9406399337666603,-0.20082491262773686,1.0
0.7202904351488498,0.6719944607598766,1.2090778874188781,-0.6852345235563885,1.1963007919856596,0.402306060855777,-0.44949737155268626,0.0
-1.093145464184823,-0.1580865703570184,1.9592876410048305,-0.13462546449657561,1.1963007919856596,1.3357438598085924,-0.36660655191103647,0.0
-0.18642751451798667,0.049433687422205344,0.5839030927639175,0.12797270213195053,0.34743607468293713,0.1674410662805527,-0.11793409298608705,1.0
1.970935882965176,0.7757545896494884,0.7714555311604057,-0.6852345235563885,0.46146267849972067,-0.3564885370026405,0.6280832837887611,1.0
0.0324354388498704,0.049433687422205344,0.3963506543674294,-0.6852345235563885,0.6261677729017412,-0.40165488211326045,-0.532388191194336,0.0
0.22003225602231932,0.6719944607598766,-0.22882414028753106,0.8649417504120077,-0.5521071332050234,-1.0791500587725618,-0.9468422894025851,0.0
0.12623384743609486,0.36071407409104095,-1.291621291200964,-0.6852345235563885,0.2460790935124622,-1.0610835207283138,1.7056639391302086,1.0
1.8458713381835432,-0.1580865703570184,1.146560407953382,-0.6852345235563885,1.2849881505098253,4.274567381672939,-0.6981698304776357,1.0
2.377395653505482,0.049433687422205344,4.897609175883145,-0.6852345235563885,0.36010569732924663,0.3059511912864541,2.368790496263407,1.0
0.12623384743609486,-0.054326441467406526,0.5839030927639175,0.3312745085540353,-0.23536656704729086,-0.028279762532134375,-0.11793409298608705,0.0
0.6577581627580334,-0.469366957025854,0.7714555311604057,0.9242381106184492,-0.3874020388030024,0.6431932347790844,2.285899676621757,0.0
-0.9368147832077823,0.5682343318702647,-1.291621291200964,-0.6852345235563885,0.06870437646413217,0.38423952281152896,-0.532388191194336,0.0
-0.7492179660353334,-0.2618466992466303,-0.10378918135653896,0.009379981719067747,-1.7303820393117884,-0.5251095587489555,-1.0297331090442348,0.0
2.346129517310074,0.36071407409104095,0.9590079695568938,1.424021718072741,0.5881589049628136,1.209278093498856,-0.36660655191103647,1.0
-1.5621375071159453,-0.3656068281362421,-1.291621291200964,-0.6852345235563885,-1.2742756240446533,-0.17281206688611878,-0.6152790108359858,0.0
0.12623384743609486,-0.469366957025854,-0.04127170189104292,0.5006926805724392,0.2460790935124622,-1.160449479971678,-0.20082491262773686,0.0
-0.6866856936445171,0.15319381631181722,-0.22882414028753106,-0.6852345235563885,-0.7928299634848999,-0.5401650071191622,-0.44949737155268626,0.0
0.5014274817809927,0.7757545896494884,0.3963506543674294,-0.6852345235563885,-0.5774463784976419,-0.7298636565837665,2.1201180373384574,0.0
-0.248959786908803,0.5682343318702647,-0.2913416197530271,-0.6852345235563885,-0.10867034058419785,1.2062670038248147,-1.0297331090442348,0.0
1.6895406572065026,0.9832748474287122,-1.291621291200964,-0.6852345235563885,-1.1349097749352515,-0.4438101375498392,-0.9468422894025851,0.0
-0.2802259231042111,-0.1580865703570184,0.08376325703994918,-0.6852345235563885,-0.8688476993627559,-0.5010208413566247,-0.7810606501192855,0.0
0.6264920265626254,-3.5821708237142103,-1.291621291200964,-0.6852345235563885,-0.23536656704729086,0.8660138706581434,-0.532388191194336,1.0
0.0324354388498704,0.8795147185391003,-1.291621291200964,-0.6852345235563885,0.36010569732924663,-0.5522093658153275,-0.03504327334443725,0.0
0.06370157504527856,0.2569539452014291,1.2090778874188781,-0.03297456128553324,0.28408796145139065,-0.6154422489701955,-0.44949737155268626,0.0
0.6577581627580334,1.087034976318324,0.20879821597094128,3.3808016048853067,-0.18468807646205382,-1.0400058930100244,0.7938649230720608,1.0
-0.6866856936445171,0.7757545896494884,-1.291621291200964,-0.6852345235563885,0.44879305585341117,-0.2571225777592762,1.3741006605636092,0.0
-0.49908887647206823,1.6058356207663835,0.9590079695568938,-0.6852345235563885,1.4496932449118458,-0.7057749391914359,0.9596465623553604,1.0
-1.3432745537480884,-1.0919277303635253,-1.291621291200964,-0.6852345235563885,0.23340947086615363,0.5438272755357201,-0.6981698304776357,0.0
-0.6241534212537009,0.36071407409104095,1.7092177231428465,0.8395290246092472,0.13205248969567868,-0.9105290370262469,2.4516813159050566,0.0
2.377395653505482,0.049433687422205344,1.146560407953382,5.617121475528239,0.6134981502554326,5.587402479554964,-0.20082491262773686,0.0
-0.655419557449109,0.46447420298065284,0.2713156954364373,0.873412659012928,0.6008285276091232,-0.18485642558228416,1.04253738199701,1.0
1.189282478079972,-0.1580865703570184,-1.291621291200964,-0.6852345235563885,-0.18468807646205382,-0.2721780261294829,0.21362918558051217,1.0
-0.7492179660353334,-0.2618466992466303,0.9590079695568938,0.1618563365356313,0.6261677729017412,0.3812284331374876,-0.6981698304776357,0.0
-0.12389524212717037,-0.1580865703570184,0.6464205722294136,0.9072962934166088,-0.13400958587681636,0.05904183801506437,-0.9468422894025851,0.0
1.2205486142753803,-0.7806473436946896,0.7089380516949096,0.7971744816046462,-0.17201845381574435,0.3450953570489915,0.4623016445054616,1.0
0.563959754171809,-0.3656068281362421,-0.22882414028753106,1.0936562826368532,-1.2362667561057255,-0.8021298087607586,-1.0297331090442348,0.0
0.157499983631503,0.46447420298065284,0.3963506543674294,-0.49887453433614415,-0.28604505763252785,-0.10355700438316792,0.5451924641471113,0.0
-0.655419557449109,-0.1580865703570184,-0.35385909921852315,-0.2108636419048574,-1.0462224164110858,0.5799603516242162,-0.6152790108359858,0.0
-0.5616211488628845,-0.1580865703570184,-1.291621291200964,-0.6852345235563885,-0.9575350578869208,-0.6756640424510224,-0.36660655191103647,0.0
2.1272665639422166,-0.469366957025854,0.1462807365054452,6.481154152822099,-0.22269694440098137,-0.22701168101886277,2.1201180373384574,1.0
0.8140888437350743,0.46447420298065284,-1.291621291200964,-0.6852345235563885,0.23340947086615363,-0.7690078223463038,2.617462955188356,0.0
0.47016134558558453,0.049433687422205344,-1.291621291200964,-0.6852345235563885,-0.08333109529157934,2.133682623429547,-0.9468422894025851,1.0
-0.6866856936445171,-0.8844074725843015,-0.35385909921852315,0.11103088493011012,-0.919526189947993,0.49263875107701727,-1.0297331090442348,0.0
-0.9055486470123743,1.190795105207936,-1.291621291200964,-0.6852345235563885,-1.5149984543245303,-0.8593405125675441,-0.44949737155268626,0.0
-0.8430163746215579,0.36071407409104095,-0.16630666082203502,-0.1261545558956554,-0.03265260470634187,0.5287718271655134,-0.8639514697609353,0.0
-0.18642751451798667,0.36071407409104095,-1.291621291200964,-0.6852345235563885,-0.08333109529157934,-0.3926216130911364,0.8767557427137106,1.0
-0.9368147832077823,-0.3656068281362421,-1.291621291200964,-0.6852345235563885,-0.5774463784976419,0.1553967075843873,-0.9468422894025851,0.0
1.6270083848156862,0.46447420298065284,1.146560407953382,0.8818835676138481,0.2460790935124622,1.4953316125327831,-0.20082491262773686,1.0
-3.7820331769899243,0.2569539452014291,-0.04127170189104292,-0.49040362573522395,-0.5267678879124048,-0.5251095587489555,-1.0297331090442348,0.0
0.157499983631503,0.8795147185391003,0.3963506543674294,0.3312745085540353,-0.5647767558513328,0.1252858108439739,-1.0297331090442348,0.0
1.6270083848156862,0.049433687422205344,-0.41637657868401917,0.7378781213982047,-0.27337543498621886,-0.3384219989583924,-0.03504327334443725,1.0
0.2512983922177275,1.087034976318324,-0.8539989349424916,2.0762816803435964,-1.553007322263458,0.32702881900474345,2.2030088569801074,0.0
0.7828227075396661,0.8276346540942944,0.3963506543674294,0.1618563365356313,-0.37473241615669334,-0.8563294228935028,-0.532388191194336,0.0
0.6890242989534416,0.46447420298065284,-1.291621291200964,-0.6852345235563885,1.6650768298991043,-0.8533183332194614,1.1254282016386599,0.0
-0.6866856936445171,0.5682343318702647,-0.6039290170805073,-0.14309637309749582,-1.5910161902023858,-0.5702759038595756,-0.2837157322693866,0.0
-0.4365566040812519,0.2569539452014291,0.5839030927639175,0.1618563365356313,0.22073984821984413,-0.20894514297461472,-0.8639514697609353,0.0
-0.8117502384261498,-0.469366957025854,-0.16630666082203502,-0.193921824703017,-1.0082135484721584,-0.6425420560365677,-0.9468422894025851,0.0
-0.7492179660353334,-0.054326441467406526,0.021245777574453128,-0.6852345235563885,-0.5901160011439514,1.8717178217879504,-0.9468422894025851,0.0
1.0954840694937475,0.30883400964623503,-1.291621291200964,-0.6852345235563885,2.083174377227311,-0.7087860288654771,-0.11793409298608705,1.0
-0.09262910593176221,0.15319381631181722,-0.10378918135653896,-0.6852345235563885,-1.1095705296426324,3.0189429875977005,1.04253738199701,0.0
0.2825645284131356,1.3983153629871596,-1.291621291200964,-0.6852345235563885,-1.172918642874179,-0.6184533386442369,-1.0297331090442348,0.0
-0.5928872850582927,1.087034976318324,1.146560407953382,-0.6852345235563885,0.4868019237923396,0.604049069016547,-0.44949737155268626,0.0
0.47016134558558453,0.6719944607598766,-1.291621291200964,-0.6852345235563885,-4.036253360940081,0.5016720200991412,2.9490262337549558,0.0
-0.9680809194031905,0.46447420298065284,-1.291621291200964,-0.6852345235563885,1.3736755090339907,0.25777375650179296,-1.0297331090442348,0.0
-0.49908887647206823,-0.5731270859154659,-1.291621291200964,-0.6852345235563885,-0.9575350578869208,-0.8623516022415855,-1.0297331090442348,0.0
-0.8430163746215579,-0.2618466992466303,0.2713156954364373,-0.016032744083692846,0.1827309802809157,0.7967588081551925,0.6280832837887611,0.0
-0.3114920592996193,-0.3656068281362421,-1.291621291200964,-0.6852345235563885,-1.172918642874179,-0.9978506375734458,-1.0297331090442348,0.0
-0.655419557449109,0.9832748474287122,2.4594274767287994,0.2465654225448333,1.8931300375326712,1.4712428951404524,-0.20082491262773686,0.0
1.6270083848156862,0.46447420298065284,0.7089380516949096,1.5595562556874643,1.8551211695937437,2.064427560926596,2.037227217696808,0.0
-0.2802259231042111,0.46447420298065284,1.8342526820738385,0.5006926805724392,0.9555779617057832,-0.8984846783300815,-0.7810606501192855,0.0
-0.7804841022307416,-0.2618466992466303,0.3963506543674294,0.05173452472366874,0.1700613576346071,-0.5552204554893688,-1.0297331090442348,0.0
0.9391533885167068,0.049433687422205344,1.2090778874188781,1.6103817072929854,1.2596489052172062,0.8088031668513579,0.3794108248638118,1.0
-0.655419557449109,-0.1580865703570184,0.5213856132984215,0.9750635622239704,0.018025885878895156,-0.08850155601296121,0.7109741034304109,0.0
-0.18642751451798667,-3.5821708237142103,-1.291621291200964,-0.6852345235563885,-4.036253360940081,-0.6395309663625263,-0.2837157322693866,1.0
0.8140888437350743,1.294555234097548,1.271595366884374,-0.6852345235563885,2.209870603690404,-0.34745526798051646,-0.532388191194336,1.0
-0.03009683354094591,0.8795147185391003,-1.291621291200964,-0.6852345235563885,-0.4380805293882398,-0.645553145710609,-0.9468422894025851,1.0
0.0324354388498704,-0.2618466992466303,0.7089380516949096,0.6362272181871624,0.4107841879144837,0.6582486831492907,-0.2837157322693866,1.0
0.9391533885167068,-0.3656068281362421,0.6464205722294136,0.3312745085540353,0.46146267849972067,0.6582486831492907,-0.44949737155268626,0.0
-0.8742825108169661,-0.9881676014739134,0.5839030927639175,-0.14309637309749582,-0.40007166144931183,-0.35347744732859915,-0.8639514697609353,0.0
-1.1556777365756394,0.15319381631181722,0.7089380516949096,-0.6852345235563885,0.6768462634869792,-0.6214644283182782,-0.44949737155268626,0.0
1.158016341884564,0.049433687422205344,0.5839030927639175,2.0932234975454365,0.46146267849972067,-0.38961052341709523,0.13073836593886234,1.0
-0.49908887647206823,0.049433687422205344,0.7089380516949096,-0.10921273869381502,-0.13400958587681636,-1.0580724310542724,0.29652000522216193,0.0
1.0642179332983395,0.36071407409104095,0.45886813383292546,0.5854017665816412,0.1827309802809157,2.648578957690616,1.4569914802052593,1.0
-1.6559359157021698,1.9171160074352191,0.1462807365054452,-0.2701600021112988,0.46146267849972067,-0.5672648141855342,1.1254282016386599,0.0
-0.655419557449109,-3.5821708237142103,-1.291621291200964,-0.6852345235563885,-0.23536656704729086,0.031942030948692295,-0.11793409298608705,1.0
0.6577581627580334,0.8795147185391003,-1.291621291200964,-0.6852345235563885,1.5383806034360112,0.516727468469348,-0.9468422894025851,1.0
1.158016341884564,1.087034976318324,-1.291621291200964,-0.6852345235563885,-0.03265260470634187,0.9985018163159624,2.700353774830006,1.0
-0.34275819549502745,0.2569539452014291,0.5213856132984215,0.3736290515586363,0.06870437646413217,0.6763152211935388,-0.532388191194336,0.0
-0.5616211488628845,0.15319381631181722,0.7089380516949096,0.9242381106184492,0.7401943767185256,-0.4498323168979219,1.7885547587718584,0.0
-0.9368147832077823,-0.054326441467406526,0.7089380516949096,1.0936562826368532,1.0189260749373297,-0.2782002054775656,-0.6981698304776357,0.0
-0.5928872850582927,0.2569539452014291,-1.291621291200964,-0.6852345235563885,-0.29871468027883735,-1.0610835207283138,-0.11793409298608705,0.0
-1.249476145161864,0.15319381631181722,-0.16630666082203502,-0.3463981795195806,-0.6661337370218069,-0.5732869935336169,-0.7810606501192855,0.0
2.377395653505482,0.049433687422205344,1.5216652847463583,3.9144688467432793,-0.17201845381574435,-0.9496732027887843,1.6227731194885588,1.0
-0.2802259231042111,0.46447420298065284,1.2090778874188781,-0.6852345235563885,0.9555779617057832,-0.7148082082135598,0.3794108248638118,0.0
1.0329517971029314,0.46447420298065284,0.5839030927639175,0.1618563365356313,-0.12133996323050733,-0.9316066647445362,0.9596465623553604,0.0
2.3148633811146655,0.049433687422205344,-1.291621291200964,-0.6852345235563885,-0.12133996323050733,-0.43778795820175653,-0.20082491262773686,1.0
-1.9998634138516596,0.5682343318702647,1.02152544902239,-0.6852345235563885,0.1193828670493692,-1.1363607625793473,0.6280832837887611,0.0
0.7202904351488498,0.15319381631181722,0.3963506543674294,1.2461326374534167,0.2587487161587717,-0.6575975044067743,0.5451924641471113,0.0
-0.061362969736354064,-0.9881676014739134,0.08376325703994918,0.8056453902055664,-0.6027856237902603,2.5431908190991694,-0.03504327334443725,1.0
0.22003225602231932,0.15319381631181722,0.2713156954364373,0.9242381106184492,0.06870437646413217,0.2276628597613795,-0.532388191194336,1.0
1.5332099762294618,-0.2618466992466303,1.02152544902239,1.2207199116506562,0.3347664520366277,-0.35347744732859915,-0.2837157322693866,1.0
0.5952258903672172,0.6719944607598766,1.396630325815366,2.067810771742676,0.9302387164131651,0.16442997660651135,2.037227217696808,1.0
1.2830808866661965,-0.8844074725843015,1.0840429284878859,-0.6852345235563885,0.6768462634869792,0.5378050961876374,-0.7810606501192855,1.0
1.2518147504707884,-0.9881676014739134,-1.291621291200964,-0.6852345235563885,-1.2616060013983443,-0.6606085940808156,2.617462955188356,0.0
-0.21769365071339483,-3.5821708237142103,-1.291621291200964,-0.6852345235563885,-4.036253360940081,-0.8563294228935028,-0.6152790108359858,0.0
-0.3740243316904356,-0.469366957025854,0.3963506543674294,-0.6852345235563885,-0.8688476993627559,-0.8051408984348,-0.532388191194336,0.0
1.0954840694937475,0.8795147185391003,-1.291621291200964,-0.6852345235563885,-0.8941869446553744,-0.7328747462578078,1.6227731194885588,1.0
0.7828227075396661,0.6719944607598766,-1.291621291200964,-0.6852345235563885,1.0949438108151857,3.937325338180309,0.8767557427137106,0.0
-0.18642751451798667,1.5020754918767716,-1.291621291200964,-0.6852345235563885,-0.9955439258258488,1.6519082755829326,0.04784754629721255,0.0
0.0949677112406867,-0.469366957025854,0.7089380516949096,-0.6852345235563885,0.4994715464386482,0.12227472116993256,-1.0297331090442348,0.0
-0.7492179660353334,0.36071407409104095,0.7089380516949096,0.08561815912734953,1.1456223014004228,1.1972337348026907,-0.11793409298608705,1.0
-1.030613191794007,0.46447420298065284,0.5213856132984215,-0.041445469886453444,0.018025885878895156,-0.32637764026222704,-0.36660655191103647,0.0
-0.7492179660353334,-0.469366957025854,0.1462807365054452,-0.6852345235563885,-0.4634197746808584,-0.09151264568700256,-0.9468422894025851,0.0
-0.4365566040812519,-0.3656068281362421,-0.47889405814951524,-0.278630910712219,-1.1349097749352515,0.6160934277127122,-0.8639514697609353,1.0
-0.6866856936445171,0.2569539452014291,0.3963506543674294,-0.6852345235563885,-0.36206279351038384,-0.814174167456924,-0.11793409298608705,0.0
-1.3745406899434964,-0.6768872148050777,0.5839030927639175,-0.2108636419048574,0.1827309802809157,2.341447810938399,-0.7810606501192855,0.0
0.5326936179764008,-0.469366957025854,0.8964904900913978,0.7294072127972846,0.34743607468293713,0.1824965146507594,-1.0297331090442348,1.0
-0.9055486470123743,-0.3656068281362421,0.45886813383292546,-0.6852345235563885,-0.03265260470634187,-1.0339837136619416,-0.7810606501192855,0.0
1.5644761124248698,2.1246362652144426,0.20879821597094128,1.3477835406644592,1.7157553204843412,0.7455702836964897,1.7056639391302086,1.0
0.4388952093901764,-0.054326441467406526,1.3341128463498702,1.432492626673661,1.3229970184487527,-0.32637764026222704,-0.7810606501192855,1.0
-0.21769365071339483,-0.054326441467406526,0.08376325703994918,-0.6852345235563885,-0.40007166144931183,-1.1484051212755126,-0.6981698304776357,0.0
0.7828227075396661,0.049433687422205344,-1.291621291200964,-0.6852345235563885,0.7655336220111437,-0.41972142015750846,-0.44949737155268626,1.0
0.7515565713442579,0.6719944607598766,-0.16630666082203502,-0.6852345235563885,0.08137399911044166,-0.7178192978876011,3.0319170533966053,1.0
-1.030613191794007,-0.5731270859154659,0.33383317490193337,-0.5496999859416654,-0.4380805293882398,0.8810693190283501,-0.9468422894025851,0.0
-0.3114920592996193,-0.469366957025854,-1.291621291200964,-0.6852345235563885,-0.7168122276070443,-0.3926216130911364,-0.8639514697609353,0.0
-0.18642751451798667,-0.469366957025854,1.146560407953382,-0.6852345235563885,0.23340947086615363,-0.6877084011471878,0.5451924641471113,1.0
-0.46782274027666004,-0.6768872148050777,0.3963506543674294,0.7124653955954442,-0.36206279351038384,-0.14270117014570538,-0.9468422894025851,0.0
-2.031129550047068,-0.6768872148050777,0.45886813383292546,-0.30404363651497956,-0.9702046805332304,-0.42574359950559115,-0.9468422894025851,0.0
1.4706777038386454,0.9832748474287122,0.5213856132984215,-0.6852345235563885,0.3981145652681742,1.2996107837200963,1.539882299846909,1.0
-1.4996052347251292,-0.9881676014739134,-0.6664464965460034,-0.6852345235563885,-1.1222401522889418,-0.6786751321250637,-1.0297331090442348,0.0
0.12623384743609486,0.5682343318702647,-1.291621291200964,-0.6852345235563885,0.0560347538178227,0.18851869399884208,-0.532388191194336,1.0
-0.3114920592996193,0.7757545896494884,1.2090778874188781,-0.6852345235563885,1.8931300375326712,1.359832577200923,0.9596465623553604,1.0
1.8458713381835432,1.087034976318324,0.33383317490193337,0.07714725052642933,0.5881589049628136,-0.4799432136383353,0.13073836593886234,1.0
0.22003225602231932,-0.054326441467406526,-0.10378918135653896,0.8395290246092472,-0.17201845381574435,2.763000365304187,-0.6981698304776357,1.0
0.0324354388498704,-0.054326441467406526,-1.291621291200964,-0.6852345235563885,0.3981145652681742,-0.23905603971502815,-0.36660655191103647,0.0
1.189282478079972,-0.2618466992466303,-1.291621291200964,-0.6852345235563885,-0.5647767558513328,-0.5401650071191622,0.5451924641471113,0.0
0.2512983922177275,1.190795105207936,1.7717352026083424,0.6277563095862422,0.5754892823165042,1.4893094331847005,-0.11793409298608705,1.0
2.2523311087238493,0.049433687422205344,0.6464205722294136,-0.6852345235563885,0.3854449426218647,-0.6997527598433532,-0.6981698304776357,1.0
2.158532700137625,1.190795105207936,-1.291621291200964,-0.6852345235563885,0.46146267849972067,-0.5883424419038235,2.700353774830006,1.0
-1.249476145161864,0.8795147185391003,-0.2913416197530271,-0.1261545558956554,-0.5521071332050234,-0.504031931030666,-0.9468422894025851,0.0
-1.249476145161864,0.15319381631181722,-0.35385909921852315,-0.041445469886453444,-0.22269694440098137,0.22164068041329685,-0.6981698304776357,0.0
1.9396697467697677,1.294555234097548,-1.291621291200964,-0.6852345235563885,1.1329526787541133,2.973776642487081,0.9596465623553604,0.0
0.970419524712115,0.9832748474287122,1.4591478052808622,-0.6852345235563885,2.298557962214569,-0.4106881511353845,0.21362918558051217,1.0
-0.7492179660353334,-0.1580865703570184,-0.35385909921852315,0.5006926805724392,-1.0969009069963234,0.04097529997081632,-0.9468422894025851,0.0
-0.3114920592996193,-0.3656068281362421,-0.47889405814951524,0.8564708418110876,-0.9955439258258488,-1.009894996269611,-0.8639514697609353,0.0
-1.1556777365756394,0.2569539452014291,0.6464205722294136,-0.6852345235563885,0.8162121125963807,-0.049357390250423766,0.4623016445054616,0.0
0.5014274817809927,0.7757545896494884,-1.291621291200964,-0.6852345235563885,-0.08333109529157934,-0.6666307734288983,-0.2837157322693866,0.0
-0.4365566040812519,0.5682343318702647,-1.291621291200964,-0.6852345235563885,-0.919526189947993,1.1520673896920706,0.04784754629721255,0.0
0.8140888437350743,0.2569539452014291,0.2713156954364373,1.7967416965132297,0.3854449426218647,-0.2661558467814002,-0.2837157322693866,0.0
-1.061879327989415,-3.5821708237142103,0.1462807365054452,-0.6852345235563885,-0.37473241615669334,0.9021469467466394,-0.6981698304776357,0.0
-0.3114920592996193,0.049433687422205344,0.3963506543674294,-0.6852345235563885,-0.5521071332050234,-1.0008617272474871,0.5451924641471113,1.0
-1.2182100089664558,0.049433687422205344,-1.291621291200964,-0.6852345235563885,-1.3629629825688183,-0.25411148808523487,-0.6981698304776357,0.0
-0.18642751451798667,-0.2618466992466303,0.08376325703994918,-0.6852345235563885,-0.13400958587681636,-0.15775661851591208,-1.0297331090442348,0.0
2.346129517310074,1.087034976318324,-1.291621291200964,-0.6852345235563885,1.0062564522910202,-0.06742392829467182,0.6280832837887611,1.0
0.0949677112406867,0.049433687422205344,0.7714555311604057,1.1360108256414543,-0.8054995861312094,-0.9406399337666603,0.29652000522216193,0.0
-0.49908887647206823,0.7757545896494884,-1.291621291200964,-0.6852345235563885,-0.5014286426197864,0.8057920771773165,2.368790496263407,1.0
0.6577581627580334,0.6719944607598766,-0.16630666082203502,-0.14309637309749582,-0.9068565673016838,0.8660138706581434,-1.0297331090442348,0.0
-0.5616211488628845,-0.1580865703570184,0.7089380516949096,-0.6852345235563885,0.9175690937668557,-0.38961052341709523,-0.20082491262773686,1.0
-0.3740243316904356,0.30883400964623503,0.33383317490193337,-0.6852345235563885,0.5248107917312672,0.2186295907392555,2.2030088569801074,0.0
-1.280742281357272,0.6719944607598766,0.6464205722294136,-0.09227092149197463,0.29675758409770014,2.4649024875740944,-0.532388191194336,1.0
0.2512983922177275,0.5682343318702647,-1.291621291200964,-0.6852345235563885,-0.08333109529157934,0.6913706695637455,-0.36660655191103647,0.0
-1.1556777365756394,-0.2618466992466303,0.08376325703994918,-0.1261545558956554,0.4994715464386482,0.21561850106521416,-1.0297331090442348,0.0
0.7202904351488498,0.6719944607598766,1.5841827642118542,0.8395290246092472,1.8044426790085066,-0.4167103304834672,1.04253738199701,1.0
2.0960004277468087,0.6719944607598766,-0.41637657868401917,0.8818835676138481,0.018025885878895156,0.6281377864088776,-0.9468422894025851,1.0
0.3138306646085438,0.9832748474287122,-1.291621291200964,-0.6852345235563885,-0.03265260470634187,0.8118142565253992,-0.11793409298608705,1.0
-0.12389524212717037,-3.5821708237142103,-1.291621291200964,-0.6852345235563885,0.2460790935124622,1.3809102049192126,0.8767557427137106,0.0
0.0011693026544622438,0.049433687422205344,0.7089380516949096,0.11950179353103033,0.9175690937668557,1.2424000799133108,-0.8639514697609353,0.0
-0.9368147832077823,-3.5821708237142103,-1.291621291200964,-0.6852345235563885,-0.26070581233990936,0.08313055540739511,-0.20082491262773686,0.0
-0.09262910593176221,0.049433687422205344,-1.291621291200964,-0.6852345235563885,1.6017287166675578,1.296599694046055,-0.6152790108359858,0.0
-1.1869438727710475,-0.20996663480182434,0.45886813383292546,-0.1261545558956554,0.6261677729017412,0.46855003368468656,-0.7810606501192855,0.0
-1.061879327989415,0.5682343318702647,-1.291621291200964,-0.6852345235563885,-1.0969009069963234,-1.1724938386678434,-0.11793409298608705,0.0
-0.6866856936445171,-0.7806473436946896,0.45886813383292546,0.017850890319987947,0.27141833880508115,0.07710837605931242,-0.2837157322693866,0.0
0.47016134558558453,0.049433687422205344,0.7089380516949096,0.2465654225448333,0.6641766408406696,-0.9647286511589911,0.7938649230720608,1.0
0.0949677112406867,0.15319381631181722,-1.291621291200964,-0.6852345235563885,-0.5394375105587139,-0.317344371240103,-0.36660655191103647,1.0
-0.7804841022307416,0.46447420298065284,1.146560407953382,-0.6852345235563885,0.6895158861332877,-0.7087860288654771,0.5451924641471113,0.0
-0.9055486470123743,-0.8844074725843015,-1.291621291200964,-0.6852345235563885,-0.22269694440098137,-1.0008617272474871,-0.9468422894025851,0.0
-0.34275819549502745,-0.054326441467406526,-1.291621291200964,-0.6852345235563885,-0.7421514728996629,-0.5461871864672448,-0.2837157322693866,0.0
-1.4370729623343128,-0.2618466992466303,0.20879821597094128,-0.2193345505057776,-0.27337543498621886,-0.3113221918920204,-0.03504327334443725,0.0
0.2825645284131356,0.46447420298065284,0.1462807365054452,-0.016032744083692846,-0.4380805293882398,-0.45284340657196326,0.04784754629721255,1.0
0.2512983922177275,-0.054326441467406526,1.7717352026083424,0.3736290515586363,0.8415513578889997,-0.10355700438316792,0.7938649230720608,1.0
-0.03009683354094591,0.46447420298065284,-1.291621291200964,-0.6852345235563885,-0.8688476993627559,-0.1938896946044082,2.5345721355467066,0.0
0.6264920265626254,0.2569539452014291,-1.291621291200964,-0.6852345235563885,-0.5394375105587139,-0.6907194908212291,0.5451924641471113,0.0
-0.061362969736354064,0.5682343318702647,0.8964904900913978,-0.6852345235563885,-0.36206279351038384,-0.6335087870144436,-0.36660655191103647,1.0
0.8140888437350743,0.5682343318702647,-1.291621291200964,-0.6852345235563885,-0.29871468027883735,-0.8894514093079575,1.3741006605636092,1.0
1.1267502056891558,0.2569539452014291,0.8964904900913978,3.041965260848499,0.9555779617057832,-1.0219393549657763,-0.2837157322693866,0.0
0.6890242989534416,-0.1580865703570184,-1.291621291200964,-0.6852345235563885,0.3854449426218647,-1.036994803335983,0.6280832837887611,1.0
-0.12389524212717037,0.8795147185391003,0.5839030927639175,0.20421087954023232,0.9175690937668557,-0.6696418631029397,0.7109741034304109,0.0
0.0949677112406867,0.2569539452014291,-1.291621291200964,-0.6852345235563885,0.27141833880508115,-0.7629856429982211,0.3794108248638118,1.0
2.2523311087238493,-0.9881676014739134,-0.2913416197530271,2.491356201788686,-0.7548210955459723,0.5468383652097615,-0.7810606501192855,0.0
-0.5303550126674764,-0.2618466992466303,0.1462807365054452,0.2973908741503545,-0.5140982652660954,-0.058390659272547794,-0.8639514697609353,0.0
-0.3740243316904356,-1.6107283748115846,-0.16630666082203502,0.3312745085540353,-1.1095705296426324,-0.19991187395249085,-0.6152790108359858,0.0
-0.46782274027666004,0.6719944607598766,0.5839030927639175,-0.6852345235563885,0.9682475843520927,-0.5642537245114929,0.3794108248638118,0.0
1.8458713381835432,-0.2618466992466303,0.2713156954364373,-0.09227092149197463,0.27141833880508115,-0.6094200696221128,-0.6152790108359858,0.0
-0.8117502384261498,0.5682343318702647,1.5216652847463583,0.09408906772826973,0.5881589049628136,-0.43176577885367384,-0.6152790108359858,0.0
0.06370157504527856,-1.0919277303635253,0.7089380516949096,0.7124653955954442,1.2976577731561347,0.1403412592141806,-0.6152790108359858,0.0
-0.9055486470123743,-0.3656068281362421,-1.291621291200964,-0.6852345235563885,-0.7548210955459723,-0.9225733957224123,-0.20082491262773686,0.0
1.3456131590570128,0.7757545896494884,0.021245777574453128,-0.6852345235563885,-0.13400958587681636,1.0767901478410369,-0.11793409298608705,1.0
0.2825645284131356,0.049433687422205344,-0.47889405814951524,0.20421087954023232,-0.7548210955459723,-0.004191045139803806,-0.9468422894025851,0.0
0.5014274817809927,-1.5069682459219726,0.8964904900913978,0.7378781213982047,1.4243539996192276,5.463947802919267,-0.03504327334443725,1.0
0.563959754171809,-0.2618466992466303,0.8964904900913978,0.5006926805724392,-0.4127412840956209,-0.1878675152563255,-0.6152790108359858,0.0
-0.4365566040812519,0.15319381631181722,0.5839030927639175,0.009379981719067747,-0.13400958587681636,1.0466792511006235,-0.7810606501192855,0.0
1.158016341884564,0.049433687422205344,-1.291621291200964,-0.6852345235563885,-0.26070581233990936,-0.8021298087607586,2.4516813159050566,0.0
0.7828227075396661,-3.5821708237142103,-1.291621291200964,-0.6852345235563885,-0.5521071332050234,-0.7027638495173945,-0.44949737155268626,1.0
-0.12389524212717037,-0.3656068281362421,-0.5414115376150113,-0.6852345235563885,-0.27337543498621886,-0.2812112951516069,-0.2837157322693866,1.0
-1.3120084175526803,-0.469366957025854,1.3341128463498702,-0.278630910712219,1.4750324902044647,0.6160934277127122,-0.8639514697609353,0.0
-1.1869438727710475,0.46447420298065284,0.33383317490193337,-0.08380001289105443,-0.32405392557145585,0.8840804087023914,0.21362918558051217,0.0
1.0642179332983395,0.2569539452014291,-0.22882414028753106,0.12797270213195053,-0.6661337370218069,-0.12162354242741598,-0.532388191194336,1.0
-0.8430163746215579,-0.054326441467406526,-0.16630666082203502,-0.041445469886453444,-0.7421514728996629,0.26379593584987565,-1.0297331090442348,0.0
0.22003225602231932,0.9832748474287122,1.146560407953382,0.2465654225448333,0.5881589049628136,1.7572964141743794,0.29652000522216193,1.0
-1.1244116003802314,0.2569539452014291,-1.291621291200964,-0.6852345235563885,-0.22269694440098137,-0.5220984690749141,0.13073836593886234,0.0
